File /eos/user/w/wasu/conda/NewCodes/Results_trk_Dec11/SumofWeights_mc16A.npy not found, re-calculate it. 
/eos/atlas/atlascerngroupdisk/perf-jets/TAGGING/ANA-JETM-2020-02/sample_Dec11/pythia/pythiaA_hist/user.wasu.Dec11a.mc16_13TeV.364701.Pythia8EvtGen_A14NNPDF23LO_jetjet_JZ1WithSW_hist
/eos/atlas/atlascerngroupdisk/perf-jets/TAGGING/ANA-JETM-2020-02/sample_Dec11/pythia/pythiaA_hist/user.wasu.Dec11a.mc16_13TeV.364702.Pythia8EvtGen_A14NNPDF23LO_jetjet_JZ2WithSW_hist
/eos/atlas/atlascerngroupdisk/perf-jets/TAGGING/ANA-JETM-2020-02/sample_Dec11/pythia/pythiaA_hist/user.wasu.Dec11a.mc16_13TeV.364703.Pythia8EvtGen_A14NNPDF23LO_jetjet_JZ3WithSW_hist
/eos/atlas/atlascerngroupdisk/perf-jets/TAGGING/ANA-JETM-2020-02/sample_Dec11/pythia/pythiaA_hist/user.wasu.Dec11a.mc16_13TeV.364704.Pythia8EvtGen_A14NNPDF23LO_jetjet_JZ4WithSW_hist
/eos/atlas/atlascerngroupdisk/perf-jets/TAGGING/ANA-JETM-2020-02/sample_Dec11/pythia/pythiaA_hist/user.wasu.Dec11a.mc16_13TeV.364705.Pythia8EvtGen_A14NNPDF23LO_jetjet_JZ5WithSW_hist
/eos/atlas/atlascerngroupdisk/perf-jets/TAGGING/ANA-JETM-2020-02/sample_Dec11/pythia/pythiaA_hist/user.wasu.Dec11a.mc16_13TeV.364706.Pythia8EvtGen_A14NNPDF23LO_jetjet_JZ6WithSW_hist
/eos/atlas/atlascerngroupdisk/perf-jets/TAGGING/ANA-JETM-2020-02/sample_Dec11/pythia/pythiaA_hist/user.wasu.Dec11a.mc16_13TeV.364707.Pythia8EvtGen_A14NNPDF23LO_jetjet_JZ7WithSW_hist
/eos/atlas/atlascerngroupdisk/perf-jets/TAGGING/ANA-JETM-2020-02/sample_Dec11/pythia/pythiaA_hist/user.wasu.Dec11a.mc16_13TeV.364708.Pythia8EvtGen_A14NNPDF23LO_jetjet_JZ8WithSW_hist
/eos/atlas/atlascerngroupdisk/perf-jets/TAGGING/ANA-JETM-2020-02/sample_Dec11/pythia/pythiaA_hist/user.wasu.Dec11a.mc16_13TeV.364709.Pythia8EvtGen_A14NNPDF23LO_jetjet_JZ9WithSW_hist
/eos/atlas/atlascerngroupdisk/perf-jets/TAGGING/ANA-JETM-2020-02/sample_Dec11/pythia/pythiaA/user.wasu.Dec11a.mc16_13TeV.364701.Pythia8EvtGen_A14NNPDF23LO_jetjet_JZ1WithSW_minitrees.root
        Doing on file user.wasu.31564718._000001.minitrees
        Doing on file user.wasu.31564718._000002.minitrees
        Doing on file user.wasu.31564718._000003.minitrees
        Doing on file user.wasu.31564718._000004.minitrees
        Doing on file user.wasu.31564718._000005.minitrees
        Doing on file user.wasu.31564718._000006.minitrees
        Doing on file user.wasu.31564718._000007.minitrees
        Doing on file user.wasu.31564718._000008.minitrees
/eos/atlas/atlascerngroupdisk/perf-jets/TAGGING/ANA-JETM-2020-02/sample_Dec11/pythia/pythiaA/user.wasu.Dec11a.mc16_13TeV.364702.Pythia8EvtGen_A14NNPDF23LO_jetjet_JZ2WithSW_minitrees.root
        Doing on file user.wasu.31564712._000001.minitrees
        Doing on file user.wasu.31564712._000002.minitrees
        Doing on file user.wasu.31564712._000003.minitrees
        Doing on file user.wasu.31564712._000004.minitrees
        Doing on file user.wasu.31564712._000005.minitrees
        Doing on file user.wasu.31564712._000006.minitrees
        Doing on file user.wasu.31564712._000007.minitrees
        Doing on file user.wasu.31564712._000008.minitrees
/eos/atlas/atlascerngroupdisk/perf-jets/TAGGING/ANA-JETM-2020-02/sample_Dec11/pythia/pythiaA/user.wasu.Dec11a.mc16_13TeV.364703.Pythia8EvtGen_A14NNPDF23LO_jetjet_JZ3WithSW_minitrees.root
        Doing on file user.wasu.31564710._000001.minitrees
        Doing on file user.wasu.31564710._000002.minitrees
        Doing on file user.wasu.31564710._000003.minitrees
        Doing on file user.wasu.31564710._000004.minitrees
/eos/atlas/atlascerngroupdisk/perf-jets/TAGGING/ANA-JETM-2020-02/sample_Dec11/pythia/pythiaA/user.wasu.Dec11a.mc16_13TeV.364704.Pythia8EvtGen_A14NNPDF23LO_jetjet_JZ4WithSW_minitrees.root
        Doing on file user.wasu.31564719._000001.minitrees
        Doing on file user.wasu.31564719._000002.minitrees
        Doing on file user.wasu.31564719._000003.minitrees
        Doing on file user.wasu.31564719._000004.minitrees
        Doing on file user.wasu.31564719._000005.minitrees
        Doing on file user.wasu.31564719._000006.minitrees
        Doing on file user.wasu.31564719._000007.minitrees
        Doing on file user.wasu.31564719._000008.minitrees
        Doing on file user.wasu.31564719._000009.minitrees
        Doing on file user.wasu.31564719._000010.minitrees
        Doing on file user.wasu.31564719._000011.minitrees
        Doing on file user.wasu.31564719._000012.minitrees
        Doing on file user.wasu.31564719._000013.minitrees
        Doing on file user.wasu.31564719._000014.minitrees
        Doing on file user.wasu.31564719._000015.minitrees
        Doing on file user.wasu.31564719._000016.minitrees
        Doing on file user.wasu.31564719._000017.minitrees
        Doing on file user.wasu.31564719._000018.minitrees
        Doing on file user.wasu.31564719._000019.minitrees
        Doing on file user.wasu.31564719._000020.minitrees
        Doing on file user.wasu.31564719._000021.minitrees
        Doing on file user.wasu.31564719._000022.minitrees
        Doing on file user.wasu.31564719._000023.minitrees
        Doing on file user.wasu.31564719._000024.minitrees
        Doing on file user.wasu.31564719._000025.minitrees
        Doing on file user.wasu.31564719._000026.minitrees
        Doing on file user.wasu.31564719._000027.minitrees
        Doing on file user.wasu.31564719._000028.minitrees
        Doing on file user.wasu.31564719._000029.minitrees
        Doing on file user.wasu.31564719._000030.minitrees
        Doing on file user.wasu.31564719._000031.minitrees
        Doing on file user.wasu.31564719._000032.minitrees
        Doing on file user.wasu.31564719._000033.minitrees
        Doing on file user.wasu.31564719._000034.minitrees
        Doing on file user.wasu.31564719._000035.minitrees
        Doing on file user.wasu.31564719._000036.minitrees
        Doing on file user.wasu.31564719._000037.minitrees
        Doing on file user.wasu.31564719._000038.minitrees
        Doing on file user.wasu.31564719._000039.minitrees
        Doing on file user.wasu.31564719._000040.minitrees
        Doing on file user.wasu.31564719._000041.minitrees
        Doing on file user.wasu.31564719._000042.minitrees
        Doing on file user.wasu.31564719._000043.minitrees
        Doing on file user.wasu.31564719._000044.minitrees
        Doing on file user.wasu.31564719._000045.minitrees
        Doing on file user.wasu.31564719._000046.minitrees
        Doing on file user.wasu.31564719._000047.minitrees
        Doing on file user.wasu.31564719._000048.minitrees
        Doing on file user.wasu.31564719._000049.minitrees
        Doing on file user.wasu.31564719._000050.minitrees
        Doing on file user.wasu.31564719._000051.minitrees
        Doing on file user.wasu.31564719._000052.minitrees
        Doing on file user.wasu.31564719._000053.minitrees
        Doing on file user.wasu.31564719._000054.minitrees
        Doing on file user.wasu.31564719._000055.minitrees
        Doing on file user.wasu.31564719._000056.minitrees
        Doing on file user.wasu.31564719._000057.minitrees
        Doing on file user.wasu.31564719._000058.minitrees
        Doing on file user.wasu.31564719._000059.minitrees
        Doing on file user.wasu.31564719._000060.minitrees
        Doing on file user.wasu.31564719._000061.minitrees
        Doing on file user.wasu.31564719._000062.minitrees
        Doing on file user.wasu.31564719._000063.minitrees
        Doing on file user.wasu.31564719._000064.minitrees
        Doing on file user.wasu.31564719._000065.minitrees
        Doing on file user.wasu.31564719._000066.minitrees
        Doing on file user.wasu.31564719._000067.minitrees
        Doing on file user.wasu.31564719._000068.minitrees
        Doing on file user.wasu.31564719._000069.minitrees
        Doing on file user.wasu.31564719._000070.minitrees
        Doing on file user.wasu.31564719._000071.minitrees
        Doing on file user.wasu.31564719._000072.minitrees
/eos/atlas/atlascerngroupdisk/perf-jets/TAGGING/ANA-JETM-2020-02/sample_Dec11/pythia/pythiaA/user.wasu.Dec11a.mc16_13TeV.364705.Pythia8EvtGen_A14NNPDF23LO_jetjet_JZ5WithSW_minitrees.root
        Doing on file user.wasu.31564715._000001.minitrees
        Doing on file user.wasu.31564715._000002.minitrees
        Doing on file user.wasu.31564715._000003.minitrees
        Doing on file user.wasu.31564715._000004.minitrees
        Doing on file user.wasu.31564715._000005.minitrees
        Doing on file user.wasu.31564715._000006.minitrees
        Doing on file user.wasu.31564715._000007.minitrees
        Doing on file user.wasu.31564715._000008.minitrees
        Doing on file user.wasu.31564715._000009.minitrees
        Doing on file user.wasu.31564715._000010.minitrees
        Doing on file user.wasu.31564715._000011.minitrees
        Doing on file user.wasu.31564715._000012.minitrees
        Doing on file user.wasu.31564715._000013.minitrees
        Doing on file user.wasu.31564715._000014.minitrees
        Doing on file user.wasu.31564715._000015.minitrees
        Doing on file user.wasu.31564715._000016.minitrees
        Doing on file user.wasu.31564715._000017.minitrees
        Doing on file user.wasu.31564715._000018.minitrees
        Doing on file user.wasu.31564715._000019.minitrees
        Doing on file user.wasu.31564715._000020.minitrees
        Doing on file user.wasu.31564715._000021.minitrees
        Doing on file user.wasu.31564715._000022.minitrees
        Doing on file user.wasu.31564715._000023.minitrees
        Doing on file user.wasu.31564715._000024.minitrees
        Doing on file user.wasu.31564715._000025.minitrees
        Doing on file user.wasu.31564715._000026.minitrees
        Doing on file user.wasu.31564715._000027.minitrees
        Doing on file user.wasu.31564715._000028.minitrees
        Doing on file user.wasu.31564715._000029.minitrees
        Doing on file user.wasu.31564715._000030.minitrees
/eos/atlas/atlascerngroupdisk/perf-jets/TAGGING/ANA-JETM-2020-02/sample_Dec11/pythia/pythiaA/user.wasu.Dec11a.mc16_13TeV.364706.Pythia8EvtGen_A14NNPDF23LO_jetjet_JZ6WithSW_minitrees.root
        Doing on file user.wasu.31564716._000001.minitrees
        Doing on file user.wasu.31564716._000002.minitrees
        Doing on file user.wasu.31564716._000003.minitrees
        Doing on file user.wasu.31564716._000005.minitrees
        Doing on file user.wasu.31564716._000007.minitrees
        Doing on file user.wasu.31564716._000008.minitrees
        Doing on file user.wasu.31564716._000009.minitrees
        Doing on file user.wasu.31564716._000010.minitrees
        Doing on file user.wasu.31564716._000011.minitrees
        Doing on file user.wasu.31564716._000012.minitrees
        Doing on file user.wasu.31564716._000013.minitrees
        Doing on file user.wasu.31564716._000014.minitrees
        Doing on file user.wasu.31564716._000015.minitrees
        Doing on file user.wasu.31564716._000016.minitrees
        Doing on file user.wasu.31564716._000017.minitrees
        Doing on file user.wasu.31564716._000018.minitrees
/eos/atlas/atlascerngroupdisk/perf-jets/TAGGING/ANA-JETM-2020-02/sample_Dec11/pythia/pythiaA/user.wasu.Dec11a.mc16_13TeV.364707.Pythia8EvtGen_A14NNPDF23LO_jetjet_JZ7WithSW_minitrees.root
        Doing on file user.wasu.31564711._000001.minitrees
        Doing on file user.wasu.31564711._000002.minitrees
        Doing on file user.wasu.31564711._000003.minitrees
        Doing on file user.wasu.31564711._000004.minitrees
        Doing on file user.wasu.31564711._000005.minitrees
        Doing on file user.wasu.31564711._000006.minitrees
        Doing on file user.wasu.31564711._000007.minitrees
        Doing on file user.wasu.31564711._000008.minitrees
        Doing on file user.wasu.31564711._000009.minitrees
        Doing on file user.wasu.31564711._000010.minitrees
        Doing on file user.wasu.31564711._000011.minitrees
        Doing on file user.wasu.31564711._000012.minitrees
        Doing on file user.wasu.31564711._000013.minitrees
        Doing on file user.wasu.31564711._000014.minitrees
        Doing on file user.wasu.31564711._000015.minitrees
        Doing on file user.wasu.31564711._000016.minitrees
/eos/atlas/atlascerngroupdisk/perf-jets/TAGGING/ANA-JETM-2020-02/sample_Dec11/pythia/pythiaA/user.wasu.Dec11a.mc16_13TeV.364708.Pythia8EvtGen_A14NNPDF23LO_jetjet_JZ8WithSW_minitrees.root
        Doing on file user.wasu.31564714._000003.minitrees
        Doing on file user.wasu.31564714._000004.minitrees
        Doing on file user.wasu.31564714._000005.minitrees
        Doing on file user.wasu.31564714._000006.minitrees
        Doing on file user.wasu.31564714._000007.minitrees
        Doing on file user.wasu.31564714._000008.minitrees
        Doing on file user.wasu.31564714._000009.minitrees
        Doing on file user.wasu.31564714._000010.minitrees
        Doing on file user.wasu.31564714._000011.minitrees
        Doing on file user.wasu.31564714._000012.minitrees
        Doing on file user.wasu.31564714._000013.minitrees
        Doing on file user.wasu.31564714._000014.minitrees
        Doing on file user.wasu.31564714._000015.minitrees
        Doing on file user.wasu.31564714._000016.minitrees
        Doing on file user.wasu.31564714._000027.minitrees
        Doing on file user.wasu.31564714._000028.minitrees
/eos/atlas/atlascerngroupdisk/perf-jets/TAGGING/ANA-JETM-2020-02/sample_Dec11/pythia/pythiaA/user.wasu.Dec11a.mc16_13TeV.364709.Pythia8EvtGen_A14NNPDF23LO_jetjet_JZ9WithSW_minitrees.root
        Doing on file user.wasu.31564717._000001.minitrees
        Doing on file user.wasu.31564717._000002.minitrees
        Doing on file user.wasu.31564717._000003.minitrees
        Doing on file user.wasu.31564717._000004.minitrees
        Doing on file user.wasu.31564717._000005.minitrees
        Doing on file user.wasu.31564717._000006.minitrees
        Doing on file user.wasu.31564717._000007.minitrees
Writing Histogram to the file: /eos/user/w/wasu/conda/NewCodes/Results_trk_Dec11/nominal/dijet_pythia_mc16A.root
Writing jets info to the pickle file: /eos/user/w/wasu/conda/NewCodes/Results_trk_Dec11/nominal/dijet_pythia_mc16A.pkl
Writing jets info to the pickle file: /eos/user/w/wasu/conda/NewCodes/Results_trk_Dec11/nominal/dijet_pythia_mc16A_ntrk_reweighting_quark_factor.pkl
Writing jets info to the pickle file: /eos/user/w/wasu/conda/NewCodes/Results_trk_Dec11/nominal/dijet_pythia_mc16A_ntrk_reweighting_gluon_factor.pkl
Writing jets info to the pickle file: /eos/user/w/wasu/conda/NewCodes/Results_trk_Dec11/nominal/dijet_pythia_mc16A_bdt_reweighting_quark_factor.pkl
Writing jets info to the pickle file: /eos/user/w/wasu/conda/NewCodes/Results_trk_Dec11/nominal/dijet_pythia_mc16A_bdt_reweighting_gluon_factor.pkl
/eos/atlas/atlascerngroupdisk/perf-jets/TAGGING/ANA-JETM-2020-02/sample_Dec11/pythia/pythiaA/user.wasu.Dec11a.mc16_13TeV.364701.Pythia8EvtGen_A14NNPDF23LO_jetjet_JZ1WithSW_minitrees.root
        Doing on file user.wasu.31564718._000001.minitrees
        Doing on file user.wasu.31564718._000002.minitrees
        Doing on file user.wasu.31564718._000003.minitrees
        Doing on file user.wasu.31564718._000004.minitrees
        Doing on file user.wasu.31564718._000005.minitrees
        Doing on file user.wasu.31564718._000006.minitrees
        Doing on file user.wasu.31564718._000007.minitrees
        Doing on file user.wasu.31564718._000008.minitrees
/eos/atlas/atlascerngroupdisk/perf-jets/TAGGING/ANA-JETM-2020-02/sample_Dec11/pythia/pythiaA/user.wasu.Dec11a.mc16_13TeV.364702.Pythia8EvtGen_A14NNPDF23LO_jetjet_JZ2WithSW_minitrees.root
        Doing on file user.wasu.31564712._000001.minitrees
        Doing on file user.wasu.31564712._000002.minitrees
        Doing on file user.wasu.31564712._000003.minitrees
        Doing on file user.wasu.31564712._000004.minitrees
        Doing on file user.wasu.31564712._000005.minitrees
        Doing on file user.wasu.31564712._000006.minitrees
        Doing on file user.wasu.31564712._000007.minitrees
        Doing on file user.wasu.31564712._000008.minitrees
/eos/atlas/atlascerngroupdisk/perf-jets/TAGGING/ANA-JETM-2020-02/sample_Dec11/pythia/pythiaA/user.wasu.Dec11a.mc16_13TeV.364703.Pythia8EvtGen_A14NNPDF23LO_jetjet_JZ3WithSW_minitrees.root
        Doing on file user.wasu.31564710._000001.minitrees
        Doing on file user.wasu.31564710._000002.minitrees
        Doing on file user.wasu.31564710._000003.minitrees
        Doing on file user.wasu.31564710._000004.minitrees
/eos/atlas/atlascerngroupdisk/perf-jets/TAGGING/ANA-JETM-2020-02/sample_Dec11/pythia/pythiaA/user.wasu.Dec11a.mc16_13TeV.364704.Pythia8EvtGen_A14NNPDF23LO_jetjet_JZ4WithSW_minitrees.root
        Doing on file user.wasu.31564719._000001.minitrees
        Doing on file user.wasu.31564719._000002.minitrees
        Doing on file user.wasu.31564719._000003.minitrees
        Doing on file user.wasu.31564719._000004.minitrees
        Doing on file user.wasu.31564719._000005.minitrees
        Doing on file user.wasu.31564719._000006.minitrees
        Doing on file user.wasu.31564719._000007.minitrees
        Doing on file user.wasu.31564719._000008.minitrees
        Doing on file user.wasu.31564719._000009.minitrees
        Doing on file user.wasu.31564719._000010.minitrees
        Doing on file user.wasu.31564719._000011.minitrees
        Doing on file user.wasu.31564719._000012.minitrees
        Doing on file user.wasu.31564719._000013.minitrees
        Doing on file user.wasu.31564719._000014.minitrees
        Doing on file user.wasu.31564719._000015.minitrees
        Doing on file user.wasu.31564719._000016.minitrees
        Doing on file user.wasu.31564719._000017.minitrees
        Doing on file user.wasu.31564719._000018.minitrees
        Doing on file user.wasu.31564719._000019.minitrees
        Doing on file user.wasu.31564719._000020.minitrees
        Doing on file user.wasu.31564719._000021.minitrees
        Doing on file user.wasu.31564719._000022.minitrees
        Doing on file user.wasu.31564719._000023.minitrees
        Doing on file user.wasu.31564719._000024.minitrees
        Doing on file user.wasu.31564719._000025.minitrees
        Doing on file user.wasu.31564719._000026.minitrees
        Doing on file user.wasu.31564719._000027.minitrees
        Doing on file user.wasu.31564719._000028.minitrees
        Doing on file user.wasu.31564719._000029.minitrees
        Doing on file user.wasu.31564719._000030.minitrees
        Doing on file user.wasu.31564719._000031.minitrees
        Doing on file user.wasu.31564719._000032.minitrees
        Doing on file user.wasu.31564719._000033.minitrees
        Doing on file user.wasu.31564719._000034.minitrees
        Doing on file user.wasu.31564719._000035.minitrees
        Doing on file user.wasu.31564719._000036.minitrees
        Doing on file user.wasu.31564719._000037.minitrees
        Doing on file user.wasu.31564719._000038.minitrees
        Doing on file user.wasu.31564719._000039.minitrees
        Doing on file user.wasu.31564719._000040.minitrees
        Doing on file user.wasu.31564719._000041.minitrees
        Doing on file user.wasu.31564719._000042.minitrees
        Doing on file user.wasu.31564719._000043.minitrees
        Doing on file user.wasu.31564719._000044.minitrees
        Doing on file user.wasu.31564719._000045.minitrees
        Doing on file user.wasu.31564719._000046.minitrees
        Doing on file user.wasu.31564719._000047.minitrees
        Doing on file user.wasu.31564719._000048.minitrees
        Doing on file user.wasu.31564719._000049.minitrees
        Doing on file user.wasu.31564719._000050.minitrees
        Doing on file user.wasu.31564719._000051.minitrees
        Doing on file user.wasu.31564719._000052.minitrees
        Doing on file user.wasu.31564719._000053.minitrees
        Doing on file user.wasu.31564719._000054.minitrees
        Doing on file user.wasu.31564719._000055.minitrees
        Doing on file user.wasu.31564719._000056.minitrees
        Doing on file user.wasu.31564719._000057.minitrees
        Doing on file user.wasu.31564719._000058.minitrees
        Doing on file user.wasu.31564719._000059.minitrees
        Doing on file user.wasu.31564719._000060.minitrees
        Doing on file user.wasu.31564719._000061.minitrees
        Doing on file user.wasu.31564719._000062.minitrees
        Doing on file user.wasu.31564719._000063.minitrees
        Doing on file user.wasu.31564719._000064.minitrees
        Doing on file user.wasu.31564719._000065.minitrees
        Doing on file user.wasu.31564719._000066.minitrees
        Doing on file user.wasu.31564719._000067.minitrees
        Doing on file user.wasu.31564719._000068.minitrees
        Doing on file user.wasu.31564719._000069.minitrees
        Doing on file user.wasu.31564719._000070.minitrees
        Doing on file user.wasu.31564719._000071.minitrees
        Doing on file user.wasu.31564719._000072.minitrees
/eos/atlas/atlascerngroupdisk/perf-jets/TAGGING/ANA-JETM-2020-02/sample_Dec11/pythia/pythiaA/user.wasu.Dec11a.mc16_13TeV.364705.Pythia8EvtGen_A14NNPDF23LO_jetjet_JZ5WithSW_minitrees.root
        Doing on file user.wasu.31564715._000001.minitrees
        Doing on file user.wasu.31564715._000002.minitrees
        Doing on file user.wasu.31564715._000003.minitrees
        Doing on file user.wasu.31564715._000004.minitrees
        Doing on file user.wasu.31564715._000005.minitrees
        Doing on file user.wasu.31564715._000006.minitrees
        Doing on file user.wasu.31564715._000007.minitrees
        Doing on file user.wasu.31564715._000008.minitrees
        Doing on file user.wasu.31564715._000009.minitrees
        Doing on file user.wasu.31564715._000010.minitrees
        Doing on file user.wasu.31564715._000011.minitrees
        Doing on file user.wasu.31564715._000012.minitrees
        Doing on file user.wasu.31564715._000013.minitrees
        Doing on file user.wasu.31564715._000014.minitrees
        Doing on file user.wasu.31564715._000015.minitrees
        Doing on file user.wasu.31564715._000016.minitrees
        Doing on file user.wasu.31564715._000017.minitrees
        Doing on file user.wasu.31564715._000018.minitrees
        Doing on file user.wasu.31564715._000019.minitrees
        Doing on file user.wasu.31564715._000020.minitrees
        Doing on file user.wasu.31564715._000021.minitrees
        Doing on file user.wasu.31564715._000022.minitrees
        Doing on file user.wasu.31564715._000023.minitrees
        Doing on file user.wasu.31564715._000024.minitrees
        Doing on file user.wasu.31564715._000025.minitrees
        Doing on file user.wasu.31564715._000026.minitrees
        Doing on file user.wasu.31564715._000027.minitrees
        Doing on file user.wasu.31564715._000028.minitrees
        Doing on file user.wasu.31564715._000029.minitrees
        Doing on file user.wasu.31564715._000030.minitrees
/eos/atlas/atlascerngroupdisk/perf-jets/TAGGING/ANA-JETM-2020-02/sample_Dec11/pythia/pythiaA/user.wasu.Dec11a.mc16_13TeV.364706.Pythia8EvtGen_A14NNPDF23LO_jetjet_JZ6WithSW_minitrees.root
        Doing on file user.wasu.31564716._000001.minitrees
        Doing on file user.wasu.31564716._000002.minitrees
        Doing on file user.wasu.31564716._000003.minitrees
        Doing on file user.wasu.31564716._000005.minitrees
        Doing on file user.wasu.31564716._000007.minitrees
        Doing on file user.wasu.31564716._000008.minitrees
        Doing on file user.wasu.31564716._000009.minitrees
        Doing on file user.wasu.31564716._000010.minitrees
        Doing on file user.wasu.31564716._000011.minitrees
        Doing on file user.wasu.31564716._000012.minitrees
        Doing on file user.wasu.31564716._000013.minitrees
        Doing on file user.wasu.31564716._000014.minitrees
        Doing on file user.wasu.31564716._000015.minitrees
        Doing on file user.wasu.31564716._000016.minitrees
        Doing on file user.wasu.31564716._000017.minitrees
        Doing on file user.wasu.31564716._000018.minitrees
/eos/atlas/atlascerngroupdisk/perf-jets/TAGGING/ANA-JETM-2020-02/sample_Dec11/pythia/pythiaA/user.wasu.Dec11a.mc16_13TeV.364707.Pythia8EvtGen_A14NNPDF23LO_jetjet_JZ7WithSW_minitrees.root
        Doing on file user.wasu.31564711._000001.minitrees
        Doing on file user.wasu.31564711._000002.minitrees
        Doing on file user.wasu.31564711._000003.minitrees
        Doing on file user.wasu.31564711._000004.minitrees
        Doing on file user.wasu.31564711._000005.minitrees
        Doing on file user.wasu.31564711._000006.minitrees
        Doing on file user.wasu.31564711._000007.minitrees
        Doing on file user.wasu.31564711._000008.minitrees
        Doing on file user.wasu.31564711._000009.minitrees
        Doing on file user.wasu.31564711._000010.minitrees
        Doing on file user.wasu.31564711._000011.minitrees
        Doing on file user.wasu.31564711._000012.minitrees
        Doing on file user.wasu.31564711._000013.minitrees
        Doing on file user.wasu.31564711._000014.minitrees
        Doing on file user.wasu.31564711._000015.minitrees
        Doing on file user.wasu.31564711._000016.minitrees
/eos/atlas/atlascerngroupdisk/perf-jets/TAGGING/ANA-JETM-2020-02/sample_Dec11/pythia/pythiaA/user.wasu.Dec11a.mc16_13TeV.364708.Pythia8EvtGen_A14NNPDF23LO_jetjet_JZ8WithSW_minitrees.root
        Doing on file user.wasu.31564714._000003.minitrees
        Doing on file user.wasu.31564714._000004.minitrees
        Doing on file user.wasu.31564714._000005.minitrees
        Doing on file user.wasu.31564714._000006.minitrees
        Doing on file user.wasu.31564714._000007.minitrees
        Doing on file user.wasu.31564714._000008.minitrees
        Doing on file user.wasu.31564714._000009.minitrees
        Doing on file user.wasu.31564714._000010.minitrees
        Doing on file user.wasu.31564714._000011.minitrees
        Doing on file user.wasu.31564714._000012.minitrees
        Doing on file user.wasu.31564714._000013.minitrees
        Doing on file user.wasu.31564714._000014.minitrees
        Doing on file user.wasu.31564714._000015.minitrees
        Doing on file user.wasu.31564714._000016.minitrees
        Doing on file user.wasu.31564714._000027.minitrees
        Doing on file user.wasu.31564714._000028.minitrees
/eos/atlas/atlascerngroupdisk/perf-jets/TAGGING/ANA-JETM-2020-02/sample_Dec11/pythia/pythiaA/user.wasu.Dec11a.mc16_13TeV.364709.Pythia8EvtGen_A14NNPDF23LO_jetjet_JZ9WithSW_minitrees.root
        Doing on file user.wasu.31564717._000001.minitrees
        Doing on file user.wasu.31564717._000002.minitrees
        Doing on file user.wasu.31564717._000003.minitrees
        Doing on file user.wasu.31564717._000004.minitrees
        Doing on file user.wasu.31564717._000005.minitrees
        Doing on file user.wasu.31564717._000006.minitrees
        Doing on file user.wasu.31564717._000007.minitrees
Writing Histogram to the file: /eos/user/w/wasu/conda/NewCodes/Results_trk_Dec11/nominal/dijet_pythia_mc16A.root
/eos/atlas/atlascerngroupdisk/perf-jets/TAGGING/ANA-JETM-2020-02/sample_Dec11/pythia/pythiaA/user.wasu.Dec11a.mc16_13TeV.364701.Pythia8EvtGen_A14NNPDF23LO_jetjet_JZ1WithSW_minitrees.root
        Doing on file user.wasu.31564718._000001.minitrees
        Doing on file user.wasu.31564718._000002.minitrees
        Doing on file user.wasu.31564718._000003.minitrees
        Doing on file user.wasu.31564718._000004.minitrees
        Doing on file user.wasu.31564718._000005.minitrees
        Doing on file user.wasu.31564718._000006.minitrees
        Doing on file user.wasu.31564718._000007.minitrees
        Doing on file user.wasu.31564718._000008.minitrees
/eos/atlas/atlascerngroupdisk/perf-jets/TAGGING/ANA-JETM-2020-02/sample_Dec11/pythia/pythiaA/user.wasu.Dec11a.mc16_13TeV.364702.Pythia8EvtGen_A14NNPDF23LO_jetjet_JZ2WithSW_minitrees.root
        Doing on file user.wasu.31564712._000001.minitrees
        Doing on file user.wasu.31564712._000002.minitrees
        Doing on file user.wasu.31564712._000003.minitrees
        Doing on file user.wasu.31564712._000004.minitrees
        Doing on file user.wasu.31564712._000005.minitrees
        Doing on file user.wasu.31564712._000006.minitrees
        Doing on file user.wasu.31564712._000007.minitrees
        Doing on file user.wasu.31564712._000008.minitrees
/eos/atlas/atlascerngroupdisk/perf-jets/TAGGING/ANA-JETM-2020-02/sample_Dec11/pythia/pythiaA/user.wasu.Dec11a.mc16_13TeV.364703.Pythia8EvtGen_A14NNPDF23LO_jetjet_JZ3WithSW_minitrees.root
        Doing on file user.wasu.31564710._000001.minitrees
        Doing on file user.wasu.31564710._000002.minitrees
        Doing on file user.wasu.31564710._000003.minitrees
        Doing on file user.wasu.31564710._000004.minitrees
/eos/atlas/atlascerngroupdisk/perf-jets/TAGGING/ANA-JETM-2020-02/sample_Dec11/pythia/pythiaA/user.wasu.Dec11a.mc16_13TeV.364704.Pythia8EvtGen_A14NNPDF23LO_jetjet_JZ4WithSW_minitrees.root
        Doing on file user.wasu.31564719._000001.minitrees
        Doing on file user.wasu.31564719._000002.minitrees
        Doing on file user.wasu.31564719._000003.minitrees
        Doing on file user.wasu.31564719._000004.minitrees
        Doing on file user.wasu.31564719._000005.minitrees
        Doing on file user.wasu.31564719._000006.minitrees
        Doing on file user.wasu.31564719._000007.minitrees
        Doing on file user.wasu.31564719._000008.minitrees
        Doing on file user.wasu.31564719._000009.minitrees
        Doing on file user.wasu.31564719._000010.minitrees
        Doing on file user.wasu.31564719._000011.minitrees
        Doing on file user.wasu.31564719._000012.minitrees
        Doing on file user.wasu.31564719._000013.minitrees
        Doing on file user.wasu.31564719._000014.minitrees
        Doing on file user.wasu.31564719._000015.minitrees
        Doing on file user.wasu.31564719._000016.minitrees
        Doing on file user.wasu.31564719._000017.minitrees
        Doing on file user.wasu.31564719._000018.minitrees
        Doing on file user.wasu.31564719._000019.minitrees
        Doing on file user.wasu.31564719._000020.minitrees
        Doing on file user.wasu.31564719._000021.minitrees
        Doing on file user.wasu.31564719._000022.minitrees
        Doing on file user.wasu.31564719._000023.minitrees
        Doing on file user.wasu.31564719._000024.minitrees
        Doing on file user.wasu.31564719._000025.minitrees
        Doing on file user.wasu.31564719._000026.minitrees
        Doing on file user.wasu.31564719._000027.minitrees
        Doing on file user.wasu.31564719._000028.minitrees
        Doing on file user.wasu.31564719._000029.minitrees
        Doing on file user.wasu.31564719._000030.minitrees
        Doing on file user.wasu.31564719._000031.minitrees
        Doing on file user.wasu.31564719._000032.minitrees
        Doing on file user.wasu.31564719._000033.minitrees
        Doing on file user.wasu.31564719._000034.minitrees
        Doing on file user.wasu.31564719._000035.minitrees
        Doing on file user.wasu.31564719._000036.minitrees
        Doing on file user.wasu.31564719._000037.minitrees
        Doing on file user.wasu.31564719._000038.minitrees
        Doing on file user.wasu.31564719._000039.minitrees
        Doing on file user.wasu.31564719._000040.minitrees
        Doing on file user.wasu.31564719._000041.minitrees
        Doing on file user.wasu.31564719._000042.minitrees
        Doing on file user.wasu.31564719._000043.minitrees
        Doing on file user.wasu.31564719._000044.minitrees
        Doing on file user.wasu.31564719._000045.minitrees
        Doing on file user.wasu.31564719._000046.minitrees
        Doing on file user.wasu.31564719._000047.minitrees
        Doing on file user.wasu.31564719._000048.minitrees
        Doing on file user.wasu.31564719._000049.minitrees
        Doing on file user.wasu.31564719._000050.minitrees
        Doing on file user.wasu.31564719._000051.minitrees
        Doing on file user.wasu.31564719._000052.minitrees
        Doing on file user.wasu.31564719._000053.minitrees
        Doing on file user.wasu.31564719._000054.minitrees
        Doing on file user.wasu.31564719._000055.minitrees
        Doing on file user.wasu.31564719._000056.minitrees
        Doing on file user.wasu.31564719._000057.minitrees
        Doing on file user.wasu.31564719._000058.minitrees
        Doing on file user.wasu.31564719._000059.minitrees
        Doing on file user.wasu.31564719._000060.minitrees
        Doing on file user.wasu.31564719._000061.minitrees
        Doing on file user.wasu.31564719._000062.minitrees
        Doing on file user.wasu.31564719._000063.minitrees
        Doing on file user.wasu.31564719._000064.minitrees
        Doing on file user.wasu.31564719._000065.minitrees
        Doing on file user.wasu.31564719._000066.minitrees
        Doing on file user.wasu.31564719._000067.minitrees
        Doing on file user.wasu.31564719._000068.minitrees
        Doing on file user.wasu.31564719._000069.minitrees
        Doing on file user.wasu.31564719._000070.minitrees
        Doing on file user.wasu.31564719._000071.minitrees
        Doing on file user.wasu.31564719._000072.minitrees
/eos/atlas/atlascerngroupdisk/perf-jets/TAGGING/ANA-JETM-2020-02/sample_Dec11/pythia/pythiaA/user.wasu.Dec11a.mc16_13TeV.364705.Pythia8EvtGen_A14NNPDF23LO_jetjet_JZ5WithSW_minitrees.root
        Doing on file user.wasu.31564715._000001.minitrees
        Doing on file user.wasu.31564715._000002.minitrees
        Doing on file user.wasu.31564715._000003.minitrees
        Doing on file user.wasu.31564715._000004.minitrees
        Doing on file user.wasu.31564715._000005.minitrees
        Doing on file user.wasu.31564715._000006.minitrees
        Doing on file user.wasu.31564715._000007.minitrees
        Doing on file user.wasu.31564715._000008.minitrees
        Doing on file user.wasu.31564715._000009.minitrees
        Doing on file user.wasu.31564715._000010.minitrees
        Doing on file user.wasu.31564715._000011.minitrees
        Doing on file user.wasu.31564715._000012.minitrees
        Doing on file user.wasu.31564715._000013.minitrees
        Doing on file user.wasu.31564715._000014.minitrees
        Doing on file user.wasu.31564715._000015.minitrees
        Doing on file user.wasu.31564715._000016.minitrees
        Doing on file user.wasu.31564715._000017.minitrees
        Doing on file user.wasu.31564715._000018.minitrees
        Doing on file user.wasu.31564715._000019.minitrees
        Doing on file user.wasu.31564715._000020.minitrees
        Doing on file user.wasu.31564715._000021.minitrees
        Doing on file user.wasu.31564715._000022.minitrees
        Doing on file user.wasu.31564715._000023.minitrees
        Doing on file user.wasu.31564715._000024.minitrees
        Doing on file user.wasu.31564715._000025.minitrees
        Doing on file user.wasu.31564715._000026.minitrees
        Doing on file user.wasu.31564715._000027.minitrees
        Doing on file user.wasu.31564715._000028.minitrees
        Doing on file user.wasu.31564715._000029.minitrees
        Doing on file user.wasu.31564715._000030.minitrees
/eos/atlas/atlascerngroupdisk/perf-jets/TAGGING/ANA-JETM-2020-02/sample_Dec11/pythia/pythiaA/user.wasu.Dec11a.mc16_13TeV.364706.Pythia8EvtGen_A14NNPDF23LO_jetjet_JZ6WithSW_minitrees.root
        Doing on file user.wasu.31564716._000001.minitrees
        Doing on file user.wasu.31564716._000002.minitrees
        Doing on file user.wasu.31564716._000003.minitrees
        Doing on file user.wasu.31564716._000005.minitrees
        Doing on file user.wasu.31564716._000007.minitrees
        Doing on file user.wasu.31564716._000008.minitrees
        Doing on file user.wasu.31564716._000009.minitrees
        Doing on file user.wasu.31564716._000010.minitrees
        Doing on file user.wasu.31564716._000011.minitrees
        Doing on file user.wasu.31564716._000012.minitrees
        Doing on file user.wasu.31564716._000013.minitrees
        Doing on file user.wasu.31564716._000014.minitrees
        Doing on file user.wasu.31564716._000015.minitrees
        Doing on file user.wasu.31564716._000016.minitrees
        Doing on file user.wasu.31564716._000017.minitrees
        Doing on file user.wasu.31564716._000018.minitrees
/eos/atlas/atlascerngroupdisk/perf-jets/TAGGING/ANA-JETM-2020-02/sample_Dec11/pythia/pythiaA/user.wasu.Dec11a.mc16_13TeV.364707.Pythia8EvtGen_A14NNPDF23LO_jetjet_JZ7WithSW_minitrees.root
        Doing on file user.wasu.31564711._000001.minitrees
        Doing on file user.wasu.31564711._000002.minitrees
        Doing on file user.wasu.31564711._000003.minitrees
        Doing on file user.wasu.31564711._000004.minitrees
        Doing on file user.wasu.31564711._000005.minitrees
        Doing on file user.wasu.31564711._000006.minitrees
        Doing on file user.wasu.31564711._000007.minitrees
        Doing on file user.wasu.31564711._000008.minitrees
        Doing on file user.wasu.31564711._000009.minitrees
        Doing on file user.wasu.31564711._000010.minitrees
        Doing on file user.wasu.31564711._000011.minitrees
        Doing on file user.wasu.31564711._000012.minitrees
        Doing on file user.wasu.31564711._000013.minitrees
        Doing on file user.wasu.31564711._000014.minitrees
        Doing on file user.wasu.31564711._000015.minitrees
        Doing on file user.wasu.31564711._000016.minitrees
/eos/atlas/atlascerngroupdisk/perf-jets/TAGGING/ANA-JETM-2020-02/sample_Dec11/pythia/pythiaA/user.wasu.Dec11a.mc16_13TeV.364708.Pythia8EvtGen_A14NNPDF23LO_jetjet_JZ8WithSW_minitrees.root
        Doing on file user.wasu.31564714._000003.minitrees
        Doing on file user.wasu.31564714._000004.minitrees
        Doing on file user.wasu.31564714._000005.minitrees
        Doing on file user.wasu.31564714._000006.minitrees
        Doing on file user.wasu.31564714._000007.minitrees
        Doing on file user.wasu.31564714._000008.minitrees
        Doing on file user.wasu.31564714._000009.minitrees
        Doing on file user.wasu.31564714._000010.minitrees
        Doing on file user.wasu.31564714._000011.minitrees
        Doing on file user.wasu.31564714._000012.minitrees
        Doing on file user.wasu.31564714._000013.minitrees
        Doing on file user.wasu.31564714._000014.minitrees
        Doing on file user.wasu.31564714._000015.minitrees
        Doing on file user.wasu.31564714._000016.minitrees
        Doing on file user.wasu.31564714._000027.minitrees
        Doing on file user.wasu.31564714._000028.minitrees
/eos/atlas/atlascerngroupdisk/perf-jets/TAGGING/ANA-JETM-2020-02/sample_Dec11/pythia/pythiaA/user.wasu.Dec11a.mc16_13TeV.364709.Pythia8EvtGen_A14NNPDF23LO_jetjet_JZ9WithSW_minitrees.root
        Doing on file user.wasu.31564717._000001.minitrees
        Doing on file user.wasu.31564717._000002.minitrees
        Doing on file user.wasu.31564717._000003.minitrees
        Doing on file user.wasu.31564717._000004.minitrees
        Doing on file user.wasu.31564717._000005.minitrees
        Doing on file user.wasu.31564717._000006.minitrees
        Doing on file user.wasu.31564717._000007.minitrees
Writing Histogram to the file: /eos/user/w/wasu/conda/NewCodes/Results_trk_Dec11/nominal/dijet_pythia_mc16A.root
