File /eos/user/w/wasu/conda/NewCodes/Results_eta/SumofWeights_mc16D.npy not found, re-calculate it. 
/eos/atlas/atlascerngroupdisk/perf-jets/TAGGING/ANA-JETM-2020-02/sample_Dec11/pythia/pythiaD_hist/user.keli.Dec10d.mc16_13TeV.364701.Pythia8EvtGen_A14NNPDF23LO_jetjet_JZ1WithSW_hist
/eos/atlas/atlascerngroupdisk/perf-jets/TAGGING/ANA-JETM-2020-02/sample_Dec11/pythia/pythiaD_hist/user.keli.Dec10d.mc16_13TeV.364702.Pythia8EvtGen_A14NNPDF23LO_jetjet_JZ2WithSW_hist
/eos/atlas/atlascerngroupdisk/perf-jets/TAGGING/ANA-JETM-2020-02/sample_Dec11/pythia/pythiaD_hist/user.keli.Dec10d.mc16_13TeV.364703.Pythia8EvtGen_A14NNPDF23LO_jetjet_JZ3WithSW_hist
/eos/atlas/atlascerngroupdisk/perf-jets/TAGGING/ANA-JETM-2020-02/sample_Dec11/pythia/pythiaD_hist/user.keli.Dec10d.mc16_13TeV.364704.Pythia8EvtGen_A14NNPDF23LO_jetjet_JZ4WithSW_hist
/eos/atlas/atlascerngroupdisk/perf-jets/TAGGING/ANA-JETM-2020-02/sample_Dec11/pythia/pythiaD_hist/user.keli.Dec10d.mc16_13TeV.364705.Pythia8EvtGen_A14NNPDF23LO_jetjet_JZ5WithSW_hist
/eos/atlas/atlascerngroupdisk/perf-jets/TAGGING/ANA-JETM-2020-02/sample_Dec11/pythia/pythiaD_hist/user.keli.Dec10d.mc16_13TeV.364706.Pythia8EvtGen_A14NNPDF23LO_jetjet_JZ6WithSW_hist
/eos/atlas/atlascerngroupdisk/perf-jets/TAGGING/ANA-JETM-2020-02/sample_Dec11/pythia/pythiaD_hist/user.keli.Dec10d.mc16_13TeV.364707.Pythia8EvtGen_A14NNPDF23LO_jetjet_JZ7WithSW_hist
/eos/atlas/atlascerngroupdisk/perf-jets/TAGGING/ANA-JETM-2020-02/sample_Dec11/pythia/pythiaD_hist/user.keli.Dec10d.mc16_13TeV.364708.Pythia8EvtGen_A14NNPDF23LO_jetjet_JZ8WithSW_hist
/eos/atlas/atlascerngroupdisk/perf-jets/TAGGING/ANA-JETM-2020-02/sample_Dec11/pythia/pythiaD_hist/user.keli.Dec10d.mc16_13TeV.364709.Pythia8EvtGen_A14NNPDF23LO_jetjet_JZ9WithSW_hist
/eos/atlas/atlascerngroupdisk/perf-jets/TAGGING/ANA-JETM-2020-02/sample_Dec11/pythia/pythiaD/user.keli.Dec10d.mc16_13TeV.364701.Pythia8EvtGen_A14NNPDF23LO_jetjet_JZ1WithSW_minitrees.root
        Doing on file user.keli.31564706._000001.minitrees
        Doing on file user.keli.31564706._000002.minitrees
        Doing on file user.keli.31564706._000004.minitrees
/eos/atlas/atlascerngroupdisk/perf-jets/TAGGING/ANA-JETM-2020-02/sample_Dec11/pythia/pythiaD/user.keli.Dec10d.mc16_13TeV.364702.Pythia8EvtGen_A14NNPDF23LO_jetjet_JZ2WithSW_minitrees.root
        Doing on file user.keli.31564702._000001.minitrees
        Doing on file user.keli.31564702._000002.minitrees
/eos/atlas/atlascerngroupdisk/perf-jets/TAGGING/ANA-JETM-2020-02/sample_Dec11/pythia/pythiaD/user.keli.Dec10d.mc16_13TeV.364703.Pythia8EvtGen_A14NNPDF23LO_jetjet_JZ3WithSW_minitrees.root
        Doing on file user.keli.31564707._000001.minitrees
        Doing on file user.keli.31564707._000002.minitrees
        Doing on file user.keli.31564707._000003.minitrees
/eos/atlas/atlascerngroupdisk/perf-jets/TAGGING/ANA-JETM-2020-02/sample_Dec11/pythia/pythiaD/user.keli.Dec10d.mc16_13TeV.364704.Pythia8EvtGen_A14NNPDF23LO_jetjet_JZ4WithSW_minitrees.root
        Doing on file user.keli.31564703._000001.minitrees
        Doing on file user.keli.31564703._000002.minitrees
        Doing on file user.keli.31564703._000003.minitrees
        Doing on file user.keli.31564703._000004.minitrees
        Doing on file user.keli.31564703._000005.minitrees
        Doing on file user.keli.31564703._000006.minitrees
        Doing on file user.keli.31564703._000007.minitrees
        Doing on file user.keli.31564703._000008.minitrees
        Doing on file user.keli.31564703._000009.minitrees
        Doing on file user.keli.31564703._000010.minitrees
        Doing on file user.keli.31564703._000011.minitrees
        Doing on file user.keli.31564703._000012.minitrees
        Doing on file user.keli.31564703._000013.minitrees
        Doing on file user.keli.31564703._000014.minitrees
        Doing on file user.keli.31564703._000015.minitrees
        Doing on file user.keli.31564703._000016.minitrees
        Doing on file user.keli.31564703._000017.minitrees
        Doing on file user.keli.31564703._000018.minitrees
        Doing on file user.keli.31564703._000019.minitrees
        Doing on file user.keli.31564703._000020.minitrees
        Doing on file user.keli.31564703._000021.minitrees
        Doing on file user.keli.31564703._000022.minitrees
        Doing on file user.keli.31564703._000023.minitrees
        Doing on file user.keli.31564703._000024.minitrees
        Doing on file user.keli.31564703._000025.minitrees
/eos/atlas/atlascerngroupdisk/perf-jets/TAGGING/ANA-JETM-2020-02/sample_Dec11/pythia/pythiaD/user.keli.Dec10d.mc16_13TeV.364705.Pythia8EvtGen_A14NNPDF23LO_jetjet_JZ5WithSW_minitrees.root
        Doing on file user.keli.31564708._000001.minitrees
        Doing on file user.keli.31564708._000002.minitrees
        Doing on file user.keli.31564708._000003.minitrees
        Doing on file user.keli.31564708._000004.minitrees
        Doing on file user.keli.31564708._000005.minitrees
        Doing on file user.keli.31564708._000006.minitrees
        Doing on file user.keli.31564708._000007.minitrees
        Doing on file user.keli.31564708._000009.minitrees
        Doing on file user.keli.31564708._000010.minitrees
        Doing on file user.keli.31564708._000011.minitrees
        Doing on file user.keli.31564708._000012.minitrees
        Doing on file user.keli.31564708._000013.minitrees
        Doing on file user.keli.31564708._000014.minitrees
        Doing on file user.keli.31564708._000015.minitrees
        Doing on file user.keli.31564708._000016.minitrees
        Doing on file user.keli.31564708._000017.minitrees
        Doing on file user.keli.31564708._000018.minitrees
        Doing on file user.keli.31564708._000019.minitrees
        Doing on file user.keli.31564708._000020.minitrees
        Doing on file user.keli.31564708._000021.minitrees
        Doing on file user.keli.31564708._000022.minitrees
        Doing on file user.keli.31564708._000023.minitrees
        Doing on file user.keli.31564708._000024.minitrees
        Doing on file user.keli.31564708._000025.minitrees
        Doing on file user.keli.31564708._000026.minitrees
        Doing on file user.keli.31564708._000027.minitrees
        Doing on file user.keli.31564708._000028.minitrees
        Doing on file user.keli.31564708._000029.minitrees
        Doing on file user.keli.31564708._000030.minitrees
        Doing on file user.keli.31564708._000031.minitrees
        Doing on file user.keli.31564708._000032.minitrees
        Doing on file user.keli.31564708._000033.minitrees
        Doing on file user.keli.31564708._000034.minitrees
        Doing on file user.keli.31564708._000036.minitrees
        Doing on file user.keli.31564708._000037.minitrees
        Doing on file user.keli.31564708._000038.minitrees
        Doing on file user.keli.31564708._000039.minitrees
        Doing on file user.keli.31564708._000040.minitrees
        Doing on file user.keli.31564708._000041.minitrees
        Doing on file user.keli.31564708._000042.minitrees
        Doing on file user.keli.31564708._000043.minitrees
/eos/atlas/atlascerngroupdisk/perf-jets/TAGGING/ANA-JETM-2020-02/sample_Dec11/pythia/pythiaD/user.keli.Dec10d.mc16_13TeV.364706.Pythia8EvtGen_A14NNPDF23LO_jetjet_JZ6WithSW_minitrees.root
        Doing on file user.keli.31564704._000001.minitrees
        Doing on file user.keli.31564704._000002.minitrees
        Doing on file user.keli.31564704._000003.minitrees
        Doing on file user.keli.31564704._000004.minitrees
        Doing on file user.keli.31564704._000005.minitrees
        Doing on file user.keli.31564704._000006.minitrees
        Doing on file user.keli.31564704._000007.minitrees
        Doing on file user.keli.31564704._000008.minitrees
        Doing on file user.keli.31564704._000009.minitrees
        Doing on file user.keli.31564704._000010.minitrees
        Doing on file user.keli.31564704._000011.minitrees
        Doing on file user.keli.31564704._000012.minitrees
        Doing on file user.keli.31564704._000013.minitrees
        Doing on file user.keli.31564704._000014.minitrees
        Doing on file user.keli.31564704._000015.minitrees
        Doing on file user.keli.31564704._000016.minitrees
        Doing on file user.keli.31564704._000017.minitrees
        Doing on file user.keli.31564704._000018.minitrees
        Doing on file user.keli.31564704._000019.minitrees
        Doing on file user.keli.31564704._000020.minitrees
/eos/atlas/atlascerngroupdisk/perf-jets/TAGGING/ANA-JETM-2020-02/sample_Dec11/pythia/pythiaD/user.keli.Dec10d.mc16_13TeV.364707.Pythia8EvtGen_A14NNPDF23LO_jetjet_JZ7WithSW_minitrees.root
        Doing on file user.keli.31564705._000001.minitrees
        Doing on file user.keli.31564705._000002.minitrees
        Doing on file user.keli.31564705._000003.minitrees
        Doing on file user.keli.31564705._000004.minitrees
        Doing on file user.keli.31564705._000005.minitrees
        Doing on file user.keli.31564705._000006.minitrees
        Doing on file user.keli.31564705._000007.minitrees
        Doing on file user.keli.31564705._000008.minitrees
        Doing on file user.keli.31564705._000009.minitrees
        Doing on file user.keli.31564705._000010.minitrees
        Doing on file user.keli.31564705._000011.minitrees
        Doing on file user.keli.31564705._000014.minitrees
        Doing on file user.keli.31564705._000015.minitrees
        Doing on file user.keli.31564705._000016.minitrees
        Doing on file user.keli.31564705._000017.minitrees
        Doing on file user.keli.31564705._000018.minitrees
        Doing on file user.keli.31564705._000019.minitrees
        Doing on file user.keli.31564705._000020.minitrees
        Doing on file user.keli.31564705._000021.minitrees
        Doing on file user.keli.31564705._000022.minitrees
        Doing on file user.keli.31564705._000023.minitrees
/eos/atlas/atlascerngroupdisk/perf-jets/TAGGING/ANA-JETM-2020-02/sample_Dec11/pythia/pythiaD/user.keli.Dec10d.mc16_13TeV.364708.Pythia8EvtGen_A14NNPDF23LO_jetjet_JZ8WithSW_minitrees.root
        Doing on file user.keli.31564709._000001.minitrees
        Doing on file user.keli.31564709._000002.minitrees
        Doing on file user.keli.31564709._000003.minitrees
        Doing on file user.keli.31564709._000004.minitrees
        Doing on file user.keli.31564709._000005.minitrees
        Doing on file user.keli.31564709._000006.minitrees
        Doing on file user.keli.31564709._000007.minitrees
        Doing on file user.keli.31564709._000008.minitrees
        Doing on file user.keli.31564709._000009.minitrees
        Doing on file user.keli.31564709._000010.minitrees
        Doing on file user.keli.31564709._000011.minitrees
        Doing on file user.keli.31564709._000012.minitrees
        Doing on file user.keli.31564709._000013.minitrees
        Doing on file user.keli.31564709._000014.minitrees
        Doing on file user.keli.31564709._000015.minitrees
        Doing on file user.keli.31564709._000016.minitrees
        Doing on file user.keli.31564709._000017.minitrees
        Doing on file user.keli.31564709._000018.minitrees
        Doing on file user.keli.31564709._000019.minitrees
        Doing on file user.keli.31564709._000020.minitrees
/eos/atlas/atlascerngroupdisk/perf-jets/TAGGING/ANA-JETM-2020-02/sample_Dec11/pythia/pythiaD/user.keli.Dec10d.mc16_13TeV.364709.Pythia8EvtGen_A14NNPDF23LO_jetjet_JZ9WithSW_minitrees.root
        Doing on file user.keli.31564701._000001.minitrees
        Doing on file user.keli.31564701._000002.minitrees
        Doing on file user.keli.31564701._000003.minitrees
        Doing on file user.keli.31564701._000004.minitrees
        Doing on file user.keli.31564701._000005.minitrees
        Doing on file user.keli.31564701._000006.minitrees
        Doing on file user.keli.31564701._000008.minitrees
        Doing on file user.keli.31564701._000009.minitrees
        Doing on file user.keli.31564701._000010.minitrees
        Doing on file user.keli.31564701._000011.minitrees
        Doing on file user.keli.31564701._000012.minitrees
        Doing on file user.keli.31564701._000013.minitrees
        Doing on file user.keli.31564701._000014.minitrees
        Doing on file user.keli.31564701._000015.minitrees
Writing Histogram to the file: /eos/user/w/wasu/conda/NewCodes/Results_eta/dijet_pythia_mc16D.root
