File /eos/user/w/wasu/conda/NewCodes/Results_eta/SumofWeights_mc16E.npy not found, re-calculate it. 
/eos/atlas/atlascerngroupdisk/perf-jets/TAGGING/ANA-JETM-2020-02/sample_Dec11/pythia/pythiaE_hist/user.keli.Dec10e.mc16_13TeV.364701.Pythia8EvtGen_A14NNPDF23LO_jetjet_JZ1WithSW_hist
/eos/atlas/atlascerngroupdisk/perf-jets/TAGGING/ANA-JETM-2020-02/sample_Dec11/pythia/pythiaE_hist/user.keli.Dec10e.mc16_13TeV.364702.Pythia8EvtGen_A14NNPDF23LO_jetjet_JZ2WithSW_hist
/eos/atlas/atlascerngroupdisk/perf-jets/TAGGING/ANA-JETM-2020-02/sample_Dec11/pythia/pythiaE_hist/user.keli.Dec10e.mc16_13TeV.364703.Pythia8EvtGen_A14NNPDF23LO_jetjet_JZ3WithSW_hist
/eos/atlas/atlascerngroupdisk/perf-jets/TAGGING/ANA-JETM-2020-02/sample_Dec11/pythia/pythiaE_hist/user.keli.Dec10e.mc16_13TeV.364704.Pythia8EvtGen_A14NNPDF23LO_jetjet_JZ4WithSW_hist
/eos/atlas/atlascerngroupdisk/perf-jets/TAGGING/ANA-JETM-2020-02/sample_Dec11/pythia/pythiaE_hist/user.keli.Dec10e.mc16_13TeV.364705.Pythia8EvtGen_A14NNPDF23LO_jetjet_JZ5WithSW_hist
/eos/atlas/atlascerngroupdisk/perf-jets/TAGGING/ANA-JETM-2020-02/sample_Dec11/pythia/pythiaE_hist/user.keli.Dec10e.mc16_13TeV.364706.Pythia8EvtGen_A14NNPDF23LO_jetjet_JZ6WithSW_hist
/eos/atlas/atlascerngroupdisk/perf-jets/TAGGING/ANA-JETM-2020-02/sample_Dec11/pythia/pythiaE_hist/user.keli.Dec10e.mc16_13TeV.364707.Pythia8EvtGen_A14NNPDF23LO_jetjet_JZ7WithSW_hist
/eos/atlas/atlascerngroupdisk/perf-jets/TAGGING/ANA-JETM-2020-02/sample_Dec11/pythia/pythiaE_hist/user.keli.Dec10e.mc16_13TeV.364708.Pythia8EvtGen_A14NNPDF23LO_jetjet_JZ8WithSW_hist
/eos/atlas/atlascerngroupdisk/perf-jets/TAGGING/ANA-JETM-2020-02/sample_Dec11/pythia/pythiaE_hist/user.keli.Dec10e.mc16_13TeV.364709.Pythia8EvtGen_A14NNPDF23LO_jetjet_JZ9WithSW_hist
/eos/atlas/atlascerngroupdisk/perf-jets/TAGGING/ANA-JETM-2020-02/sample_Dec11/pythia/pythiaE/user.keli.Dec10e.mc16_13TeV.364701.Pythia8EvtGen_A14NNPDF23LO_jetjet_JZ1WithSW_minitrees.root
        Doing on file user.keli.31564699._000001.minitrees
        Doing on file user.keli.31564699._000002.minitrees
        Doing on file user.keli.31564699._000003.minitrees
        Doing on file user.keli.31564699._000004.minitrees
        Doing on file user.keli.31564699._000005.minitrees
        Doing on file user.keli.31564699._000006.minitrees
        Doing on file user.keli.31564699._000007.minitrees
        Doing on file user.keli.31564699._000008.minitrees
        Doing on file user.keli.31564699._000009.minitrees
        Doing on file user.keli.31564699._000010.minitrees
        Doing on file user.keli.31564699._000011.minitrees
        Doing on file user.keli.31564699._000012.minitrees
/eos/atlas/atlascerngroupdisk/perf-jets/TAGGING/ANA-JETM-2020-02/sample_Dec11/pythia/pythiaE/user.keli.Dec10e.mc16_13TeV.364702.Pythia8EvtGen_A14NNPDF23LO_jetjet_JZ2WithSW_minitrees.root
        Doing on file user.keli.31564698._000001.minitrees
        Doing on file user.keli.31564698._000002.minitrees
        Doing on file user.keli.31564698._000003.minitrees
/eos/atlas/atlascerngroupdisk/perf-jets/TAGGING/ANA-JETM-2020-02/sample_Dec11/pythia/pythiaE/user.keli.Dec10e.mc16_13TeV.364703.Pythia8EvtGen_A14NNPDF23LO_jetjet_JZ3WithSW_minitrees.root
        Doing on file user.keli.31564696._000001.minitrees
        Doing on file user.keli.31564696._000002.minitrees
        Doing on file user.keli.31564696._000003.minitrees
        Doing on file user.keli.31564696._000005.minitrees
        Doing on file user.keli.31564696._000006.minitrees
        Doing on file user.keli.31564696._000007.minitrees
        Doing on file user.keli.31564696._000008.minitrees
/eos/atlas/atlascerngroupdisk/perf-jets/TAGGING/ANA-JETM-2020-02/sample_Dec11/pythia/pythiaE/user.keli.Dec10e.mc16_13TeV.364704.Pythia8EvtGen_A14NNPDF23LO_jetjet_JZ4WithSW_minitrees.root
        Doing on file user.keli.31564694._000001.minitrees
        Doing on file user.keli.31564694._000002.minitrees
        Doing on file user.keli.31564694._000003.minitrees
        Doing on file user.keli.31564694._000004.minitrees
        Doing on file user.keli.31564694._000005.minitrees
        Doing on file user.keli.31564694._000006.minitrees
        Doing on file user.keli.31564694._000007.minitrees
        Doing on file user.keli.31564694._000008.minitrees
        Doing on file user.keli.31564694._000009.minitrees
        Doing on file user.keli.31564694._000010.minitrees
        Doing on file user.keli.31564694._000011.minitrees
        Doing on file user.keli.31564694._000012.minitrees
        Doing on file user.keli.31564694._000013.minitrees
        Doing on file user.keli.31564694._000014.minitrees
        Doing on file user.keli.31564694._000015.minitrees
        Doing on file user.keli.31564694._000016.minitrees
        Doing on file user.keli.31564694._000017.minitrees
        Doing on file user.keli.31564694._000018.minitrees
        Doing on file user.keli.31564694._000019.minitrees
        Doing on file user.keli.31564694._000020.minitrees
        Doing on file user.keli.31564694._000021.minitrees
        Doing on file user.keli.31564694._000022.minitrees
        Doing on file user.keli.31564694._000023.minitrees
        Doing on file user.keli.31564694._000024.minitrees
        Doing on file user.keli.31564694._000025.minitrees
        Doing on file user.keli.31564694._000026.minitrees
        Doing on file user.keli.31564694._000027.minitrees
        Doing on file user.keli.31564694._000028.minitrees
        Doing on file user.keli.31564694._000029.minitrees
        Doing on file user.keli.31564694._000030.minitrees
        Doing on file user.keli.31564694._000031.minitrees
        Doing on file user.keli.31564694._000032.minitrees
        Doing on file user.keli.31564694._000033.minitrees
        Doing on file user.keli.31564694._000034.minitrees
        Doing on file user.keli.31564694._000035.minitrees
        Doing on file user.keli.31564694._000036.minitrees
        Doing on file user.keli.31564694._000037.minitrees
        Doing on file user.keli.31564694._000038.minitrees
        Doing on file user.keli.31564694._000039.minitrees
        Doing on file user.keli.31564694._000040.minitrees
        Doing on file user.keli.31564694._000041.minitrees
        Doing on file user.keli.31564694._000042.minitrees
        Doing on file user.keli.31564694._000043.minitrees
        Doing on file user.keli.31564694._000044.minitrees
        Doing on file user.keli.31564694._000045.minitrees
        Doing on file user.keli.31564694._000046.minitrees
        Doing on file user.keli.31564694._000047.minitrees
        Doing on file user.keli.31564694._000048.minitrees
        Doing on file user.keli.31564694._000049.minitrees
        Doing on file user.keli.31564694._000050.minitrees
        Doing on file user.keli.31564694._000051.minitrees
        Doing on file user.keli.31564694._000052.minitrees
        Doing on file user.keli.31564694._000053.minitrees
        Doing on file user.keli.31564694._000054.minitrees
        Doing on file user.keli.31564694._000055.minitrees
        Doing on file user.keli.31564694._000056.minitrees
        Doing on file user.keli.31564694._000057.minitrees
        Doing on file user.keli.31564694._000059.minitrees
        Doing on file user.keli.31564694._000060.minitrees
        Doing on file user.keli.31564694._000061.minitrees
        Doing on file user.keli.31564694._000062.minitrees
        Doing on file user.keli.31564694._000063.minitrees
        Doing on file user.keli.31564694._000064.minitrees
        Doing on file user.keli.31564694._000065.minitrees
        Doing on file user.keli.31564694._000066.minitrees
        Doing on file user.keli.31564694._000067.minitrees
        Doing on file user.keli.31564694._000068.minitrees
        Doing on file user.keli.31564694._000069.minitrees
        Doing on file user.keli.31564694._000070.minitrees
        Doing on file user.keli.31564694._000071.minitrees
        Doing on file user.keli.31564694._000072.minitrees
        Doing on file user.keli.31564694._000073.minitrees
        Doing on file user.keli.31564694._000074.minitrees
        Doing on file user.keli.31564694._000075.minitrees
        Doing on file user.keli.31564694._000076.minitrees
        Doing on file user.keli.31564694._000077.minitrees
        Doing on file user.keli.31564694._000078.minitrees
        Doing on file user.keli.31564694._000079.minitrees
        Doing on file user.keli.31564694._000080.minitrees
        Doing on file user.keli.31564694._000081.minitrees
        Doing on file user.keli.31564694._000082.minitrees
        Doing on file user.keli.31564694._000083.minitrees
        Doing on file user.keli.31564694._000084.minitrees
        Doing on file user.keli.31564694._000085.minitrees
        Doing on file user.keli.31564694._000086.minitrees
        Doing on file user.keli.31564694._000087.minitrees
        Doing on file user.keli.31564694._000088.minitrees
        Doing on file user.keli.31564694._000089.minitrees
        Doing on file user.keli.31564694._000090.minitrees
        Doing on file user.keli.31564694._000091.minitrees
        Doing on file user.keli.31564694._000092.minitrees
        Doing on file user.keli.31564694._000093.minitrees
        Doing on file user.keli.31564694._000094.minitrees
        Doing on file user.keli.31564694._000095.minitrees
        Doing on file user.keli.31564694._000096.minitrees
/eos/atlas/atlascerngroupdisk/perf-jets/TAGGING/ANA-JETM-2020-02/sample_Dec11/pythia/pythiaE/user.keli.Dec10e.mc16_13TeV.364705.Pythia8EvtGen_A14NNPDF23LO_jetjet_JZ5WithSW_minitrees.root
        Doing on file user.keli.31564693._000001.minitrees
        Doing on file user.keli.31564693._000002.minitrees
        Doing on file user.keli.31564693._000003.minitrees
        Doing on file user.keli.31564693._000004.minitrees
        Doing on file user.keli.31564693._000005.minitrees
        Doing on file user.keli.31564693._000006.minitrees
        Doing on file user.keli.31564693._000007.minitrees
        Doing on file user.keli.31564693._000008.minitrees
        Doing on file user.keli.31564693._000009.minitrees
        Doing on file user.keli.31564693._000010.minitrees
        Doing on file user.keli.31564693._000011.minitrees
        Doing on file user.keli.31564693._000012.minitrees
        Doing on file user.keli.31564693._000013.minitrees
        Doing on file user.keli.31564693._000014.minitrees
        Doing on file user.keli.31564693._000015.minitrees
        Doing on file user.keli.31564693._000016.minitrees
        Doing on file user.keli.31564693._000017.minitrees
        Doing on file user.keli.31564693._000018.minitrees
        Doing on file user.keli.31564693._000019.minitrees
        Doing on file user.keli.31564693._000020.minitrees
        Doing on file user.keli.31564693._000021.minitrees
        Doing on file user.keli.31564693._000022.minitrees
        Doing on file user.keli.31564693._000023.minitrees
        Doing on file user.keli.31564693._000024.minitrees
        Doing on file user.keli.31564693._000025.minitrees
        Doing on file user.keli.31564693._000026.minitrees
        Doing on file user.keli.31564693._000027.minitrees
        Doing on file user.keli.31564693._000028.minitrees
        Doing on file user.keli.31564693._000029.minitrees
        Doing on file user.keli.31564693._000030.minitrees
        Doing on file user.keli.31564693._000031.minitrees
        Doing on file user.keli.31564693._000032.minitrees
        Doing on file user.keli.31564693._000033.minitrees
        Doing on file user.keli.31564693._000034.minitrees
        Doing on file user.keli.31564693._000035.minitrees
        Doing on file user.keli.31564693._000036.minitrees
        Doing on file user.keli.31564693._000037.minitrees
        Doing on file user.keli.31564693._000038.minitrees
        Doing on file user.keli.31564693._000039.minitrees
        Doing on file user.keli.31564693._000040.minitrees
        Doing on file user.keli.31564693._000041.minitrees
        Doing on file user.keli.31564693._000042.minitrees
        Doing on file user.keli.31564693._000043.minitrees
        Doing on file user.keli.31564693._000044.minitrees
        Doing on file user.keli.31564693._000045.minitrees
        Doing on file user.keli.31564693._000046.minitrees
        Doing on file user.keli.31564693._000047.minitrees
        Doing on file user.keli.31564693._000048.minitrees
        Doing on file user.keli.31564693._000049.minitrees
        Doing on file user.keli.31564693._000050.minitrees
        Doing on file user.keli.31564693._000051.minitrees
        Doing on file user.keli.31564693._000052.minitrees
        Doing on file user.keli.31564693._000053.minitrees
        Doing on file user.keli.31564693._000055.minitrees
        Doing on file user.keli.31564693._000056.minitrees
        Doing on file user.keli.31564693._000057.minitrees
        Doing on file user.keli.31564693._000058.minitrees
        Doing on file user.keli.31564693._000059.minitrees
        Doing on file user.keli.31564693._000060.minitrees
        Doing on file user.keli.31564693._000061.minitrees
        Doing on file user.keli.31564693._000062.minitrees
        Doing on file user.keli.31564693._000063.minitrees
        Doing on file user.keli.31564693._000064.minitrees
        Doing on file user.keli.31564693._000065.minitrees
        Doing on file user.keli.31564693._000066.minitrees
        Doing on file user.keli.31564693._000067.minitrees
        Doing on file user.keli.31564693._000068.minitrees
        Doing on file user.keli.31564693._000069.minitrees
        Doing on file user.keli.31564693._000070.minitrees
        Doing on file user.keli.31564693._000071.minitrees
        Doing on file user.keli.31564693._000072.minitrees
        Doing on file user.keli.31564693._000073.minitrees
        Doing on file user.keli.31564693._000074.minitrees
        Doing on file user.keli.31564693._000075.minitrees
        Doing on file user.keli.31564693._000076.minitrees
        Doing on file user.keli.31564693._000077.minitrees
        Doing on file user.keli.31564693._000078.minitrees
        Doing on file user.keli.31564693._000079.minitrees
        Doing on file user.keli.31564693._000080.minitrees
        Doing on file user.keli.31564693._000081.minitrees
        Doing on file user.keli.31564693._000082.minitrees
        Doing on file user.keli.31564693._000083.minitrees
        Doing on file user.keli.31564693._000084.minitrees
/eos/atlas/atlascerngroupdisk/perf-jets/TAGGING/ANA-JETM-2020-02/sample_Dec11/pythia/pythiaE/user.keli.Dec10e.mc16_13TeV.364706.Pythia8EvtGen_A14NNPDF23LO_jetjet_JZ6WithSW_minitrees.root
        Doing on file user.keli.31564692._000001.minitrees
        Doing on file user.keli.31564692._000002.minitrees
        Doing on file user.keli.31564692._000003.minitrees
        Doing on file user.keli.31564692._000004.minitrees
        Doing on file user.keli.31564692._000005.minitrees
        Doing on file user.keli.31564692._000006.minitrees
        Doing on file user.keli.31564692._000007.minitrees
        Doing on file user.keli.31564692._000008.minitrees
        Doing on file user.keli.31564692._000009.minitrees
        Doing on file user.keli.31564692._000010.minitrees
        Doing on file user.keli.31564692._000011.minitrees
        Doing on file user.keli.31564692._000012.minitrees
        Doing on file user.keli.31564692._000013.minitrees
        Doing on file user.keli.31564692._000014.minitrees
        Doing on file user.keli.31564692._000015.minitrees
        Doing on file user.keli.31564692._000016.minitrees
        Doing on file user.keli.31564692._000017.minitrees
        Doing on file user.keli.31564692._000018.minitrees
        Doing on file user.keli.31564692._000019.minitrees
        Doing on file user.keli.31564692._000020.minitrees
        Doing on file user.keli.31564692._000021.minitrees
        Doing on file user.keli.31564692._000022.minitrees
        Doing on file user.keli.31564692._000023.minitrees
        Doing on file user.keli.31564692._000024.minitrees
        Doing on file user.keli.31564692._000025.minitrees
        Doing on file user.keli.31564692._000026.minitrees
        Doing on file user.keli.31564692._000027.minitrees
        Doing on file user.keli.31564692._000028.minitrees
        Doing on file user.keli.31564692._000029.minitrees
        Doing on file user.keli.31564692._000030.minitrees
        Doing on file user.keli.31564692._000031.minitrees
        Doing on file user.keli.31564692._000032.minitrees
        Doing on file user.keli.31564692._000033.minitrees
        Doing on file user.keli.31564692._000034.minitrees
        Doing on file user.keli.31564692._000035.minitrees
        Doing on file user.keli.31564692._000036.minitrees
        Doing on file user.keli.31564692._000037.minitrees
        Doing on file user.keli.31564692._000038.minitrees
        Doing on file user.keli.31564692._000039.minitrees
        Doing on file user.keli.31564692._000040.minitrees
        Doing on file user.keli.31564692._000041.minitrees
        Doing on file user.keli.31564692._000042.minitrees
        Doing on file user.keli.31564692._000043.minitrees
        Doing on file user.keli.31564692._000044.minitrees
        Doing on file user.keli.31564692._000045.minitrees
        Doing on file user.keli.31564692._000046.minitrees
        Doing on file user.keli.31564692._000047.minitrees
        Doing on file user.keli.31564692._000048.minitrees
        Doing on file user.keli.31564692._000049.minitrees
        Doing on file user.keli.31564692._000050.minitrees
        Doing on file user.keli.31564692._000051.minitrees
        Doing on file user.keli.31564692._000052.minitrees
        Doing on file user.keli.31564692._000053.minitrees
        Doing on file user.keli.31564692._000054.minitrees
        Doing on file user.keli.31564692._000055.minitrees
        Doing on file user.keli.31564692._000056.minitrees
        Doing on file user.keli.31564692._000057.minitrees
        Doing on file user.keli.31564692._000058.minitrees
        Doing on file user.keli.31564692._000059.minitrees
        Doing on file user.keli.31564692._000060.minitrees
        Doing on file user.keli.31564692._000061.minitrees
/eos/atlas/atlascerngroupdisk/perf-jets/TAGGING/ANA-JETM-2020-02/sample_Dec11/pythia/pythiaE/user.keli.Dec10e.mc16_13TeV.364707.Pythia8EvtGen_A14NNPDF23LO_jetjet_JZ7WithSW_minitrees.root
        Doing on file user.keli.31564691._000001.minitrees
        Doing on file user.keli.31564691._000002.minitrees
        Doing on file user.keli.31564691._000003.minitrees
        Doing on file user.keli.31564691._000004.minitrees
        Doing on file user.keli.31564691._000005.minitrees
        Doing on file user.keli.31564691._000006.minitrees
        Doing on file user.keli.31564691._000007.minitrees
        Doing on file user.keli.31564691._000008.minitrees
        Doing on file user.keli.31564691._000009.minitrees
        Doing on file user.keli.31564691._000010.minitrees
        Doing on file user.keli.31564691._000011.minitrees
        Doing on file user.keli.31564691._000013.minitrees
        Doing on file user.keli.31564691._000014.minitrees
        Doing on file user.keli.31564691._000015.minitrees
        Doing on file user.keli.31564691._000016.minitrees
        Doing on file user.keli.31564691._000017.minitrees
        Doing on file user.keli.31564691._000018.minitrees
        Doing on file user.keli.31564691._000019.minitrees
        Doing on file user.keli.31564691._000020.minitrees
        Doing on file user.keli.31564691._000021.minitrees
        Doing on file user.keli.31564691._000022.minitrees
        Doing on file user.keli.31564691._000023.minitrees
        Doing on file user.keli.31564691._000024.minitrees
        Doing on file user.keli.31564691._000025.minitrees
        Doing on file user.keli.31564691._000026.minitrees
        Doing on file user.keli.31564691._000027.minitrees
        Doing on file user.keli.31564691._000028.minitrees
        Doing on file user.keli.31564691._000029.minitrees
        Doing on file user.keli.31564691._000030.minitrees
        Doing on file user.keli.31564691._000031.minitrees
        Doing on file user.keli.31564691._000032.minitrees
/eos/atlas/atlascerngroupdisk/perf-jets/TAGGING/ANA-JETM-2020-02/sample_Dec11/pythia/pythiaE/user.keli.Dec10e.mc16_13TeV.364708.Pythia8EvtGen_A14NNPDF23LO_jetjet_JZ8WithSW_minitrees.root
        Doing on file user.keli.31564695._000001.minitrees
        Doing on file user.keli.31564695._000002.minitrees
        Doing on file user.keli.31564695._000003.minitrees
        Doing on file user.keli.31564695._000004.minitrees
        Doing on file user.keli.31564695._000005.minitrees
        Doing on file user.keli.31564695._000006.minitrees
        Doing on file user.keli.31564695._000007.minitrees
        Doing on file user.keli.31564695._000008.minitrees
        Doing on file user.keli.31564695._000009.minitrees
        Doing on file user.keli.31564695._000010.minitrees
        Doing on file user.keli.31564695._000011.minitrees
        Doing on file user.keli.31564695._000012.minitrees
        Doing on file user.keli.31564695._000013.minitrees
        Doing on file user.keli.31564695._000014.minitrees
        Doing on file user.keli.31564695._000015.minitrees
        Doing on file user.keli.31564695._000016.minitrees
        Doing on file user.keli.31564695._000017.minitrees
        Doing on file user.keli.31564695._000018.minitrees
        Doing on file user.keli.31564695._000019.minitrees
        Doing on file user.keli.31564695._000020.minitrees
        Doing on file user.keli.31564695._000021.minitrees
        Doing on file user.keli.31564695._000022.minitrees
        Doing on file user.keli.31564695._000023.minitrees
        Doing on file user.keli.31564695._000024.minitrees
        Doing on file user.keli.31564695._000025.minitrees
        Doing on file user.keli.31564695._000026.minitrees
        Doing on file user.keli.31564695._000027.minitrees
        Doing on file user.keli.31564695._000028.minitrees
/eos/atlas/atlascerngroupdisk/perf-jets/TAGGING/ANA-JETM-2020-02/sample_Dec11/pythia/pythiaE/user.keli.Dec10e.mc16_13TeV.364709.Pythia8EvtGen_A14NNPDF23LO_jetjet_JZ9WithSW_minitrees.root
        Doing on file user.keli.31564697._000001.minitrees
        Doing on file user.keli.31564697._000002.minitrees
        Doing on file user.keli.31564697._000004.minitrees
        Doing on file user.keli.31564697._000005.minitrees
        Doing on file user.keli.31564697._000006.minitrees
        Doing on file user.keli.31564697._000007.minitrees
        Doing on file user.keli.31564697._000008.minitrees
        Doing on file user.keli.31564697._000009.minitrees
        Doing on file user.keli.31564697._000010.minitrees
        Doing on file user.keli.31564697._000011.minitrees
        Doing on file user.keli.31564697._000012.minitrees
        Doing on file user.keli.31564697._000013.minitrees
        Doing on file user.keli.31564697._000014.minitrees
        Doing on file user.keli.31564697._000015.minitrees
        Doing on file user.keli.31564697._000016.minitrees
Writing Histogram to the file: /eos/user/w/wasu/conda/NewCodes/Results_eta/dijet_pythia_mc16E.root
