000 (11744205.000.000) 01/11 12:12:13 Job submitted from host: <137.138.76.70:9618?addrs=137.138.76.70-9618+[2001-1458-d00-1c--49]-9618&alias=bigbird11.cern.ch&noUDP&sock=schedd_4500_3445>
...
040 (11744205.000.000) 01/11 13:33:10 Started transferring input files
	Transferring to host: <128.142.137.122:9618?addrs=128.142.137.122-9618+[2001-1458-301-5e--100-6e]-9618&alias=b7g19p1003.cern.ch&noUDP&sock=slot1_30_3271_771e_41180>
...
040 (11744205.000.000) 01/11 13:33:10 Finished transferring input files
...
001 (11744205.000.000) 01/11 13:33:11 Job executing on host: <128.142.137.122:9618?addrs=128.142.137.122-9618+[2001-1458-301-5e--100-6e]-9618&alias=b7g19p1003.cern.ch&noUDP&sock=startd_2894_9f2b>
...
006 (11744205.000.000) 01/11 13:33:19 Image size of job updated: 512172
	39  -  MemoryUsage of job (MB)
	39704  -  ResidentSetSize of job (KB)
...
006 (11744205.000.000) 01/11 13:38:19 Image size of job updated: 5742220
	973  -  MemoryUsage of job (MB)
	996108  -  ResidentSetSize of job (KB)
...
006 (11744205.000.000) 01/11 13:43:20 Image size of job updated: 8209040
	1248  -  MemoryUsage of job (MB)
	1277308  -  ResidentSetSize of job (KB)
...
006 (11744205.000.000) 01/11 13:48:20 Image size of job updated: 8209040
	1954  -  MemoryUsage of job (MB)
	2000896  -  ResidentSetSize of job (KB)
...
006 (11744205.000.000) 01/11 13:53:20 Image size of job updated: 8209040
	2483  -  MemoryUsage of job (MB)
	2541688  -  ResidentSetSize of job (KB)
...
006 (11744205.000.000) 01/11 13:58:21 Image size of job updated: 11690260
	2793  -  MemoryUsage of job (MB)
	2859744  -  ResidentSetSize of job (KB)
...
006 (11744205.000.000) 01/11 14:03:22 Image size of job updated: 11690260
	2859  -  MemoryUsage of job (MB)
	2927368  -  ResidentSetSize of job (KB)
...
006 (11744205.000.000) 01/11 14:08:22 Image size of job updated: 12151384
	3492  -  MemoryUsage of job (MB)
	3575656  -  ResidentSetSize of job (KB)
...
006 (11744205.000.000) 01/11 14:13:22 Image size of job updated: 12151384
	3723  -  MemoryUsage of job (MB)
	3811864  -  ResidentSetSize of job (KB)
...
006 (11744205.000.000) 01/11 14:23:23 Image size of job updated: 12458300
	3739  -  MemoryUsage of job (MB)
	3828568  -  ResidentSetSize of job (KB)
...
006 (11744205.000.000) 01/11 14:28:23 Image size of job updated: 12681568
	3739  -  MemoryUsage of job (MB)
	3828568  -  ResidentSetSize of job (KB)
...
006 (11744205.000.000) 01/11 14:33:24 Image size of job updated: 12735936
	3739  -  MemoryUsage of job (MB)
	3828568  -  ResidentSetSize of job (KB)
...
006 (11744205.000.000) 01/11 14:38:25 Image size of job updated: 12735936
	3907  -  MemoryUsage of job (MB)
	4000520  -  ResidentSetSize of job (KB)
...
006 (11744205.000.000) 01/11 14:43:25 Image size of job updated: 12735936
	4435  -  MemoryUsage of job (MB)
	4541192  -  ResidentSetSize of job (KB)
...
006 (11744205.000.000) 01/11 14:48:26 Image size of job updated: 12735936
	4677  -  MemoryUsage of job (MB)
	4788480  -  ResidentSetSize of job (KB)
...
006 (11744205.000.000) 01/11 14:53:27 Image size of job updated: 13686452
	5060  -  MemoryUsage of job (MB)
	5180520  -  ResidentSetSize of job (KB)
...
006 (11744205.000.000) 01/11 14:58:27 Image size of job updated: 13686452
	5592  -  MemoryUsage of job (MB)
	5725472  -  ResidentSetSize of job (KB)
...
006 (11744205.000.000) 01/11 15:03:27 Image size of job updated: 14274896
	5792  -  MemoryUsage of job (MB)
	5930488  -  ResidentSetSize of job (KB)
...
006 (11744205.000.000) 01/11 15:08:29 Image size of job updated: 14488420
	6161  -  MemoryUsage of job (MB)
	6308788  -  ResidentSetSize of job (KB)
...
006 (11744205.000.000) 01/11 15:13:29 Image size of job updated: 15117848
	6558  -  MemoryUsage of job (MB)
	6714420  -  ResidentSetSize of job (KB)
...
006 (11744205.000.000) 01/11 15:18:29 Image size of job updated: 15117848
	6775  -  MemoryUsage of job (MB)
	6936752  -  ResidentSetSize of job (KB)
...
006 (11744205.000.000) 01/11 15:23:30 Image size of job updated: 15817240
	6775  -  MemoryUsage of job (MB)
	6936752  -  ResidentSetSize of job (KB)
...
006 (11744205.000.000) 01/11 15:33:31 Image size of job updated: 15817240
	6953  -  MemoryUsage of job (MB)
	7119676  -  ResidentSetSize of job (KB)
...
006 (11744205.000.000) 01/11 15:38:31 Image size of job updated: 15817240
	7589  -  MemoryUsage of job (MB)
	7771028  -  ResidentSetSize of job (KB)
...
006 (11744205.000.000) 01/11 15:43:32 Image size of job updated: 15817240
	8297  -  MemoryUsage of job (MB)
	8495436  -  ResidentSetSize of job (KB)
...
006 (11744205.000.000) 01/11 15:48:32 Image size of job updated: 16465068
	9066  -  MemoryUsage of job (MB)
	9282864  -  ResidentSetSize of job (KB)
...
006 (11744205.000.000) 01/11 15:53:32 Image size of job updated: 17933856
	9799  -  MemoryUsage of job (MB)
	10033820  -  ResidentSetSize of job (KB)
...
006 (11744205.000.000) 01/11 15:58:33 Image size of job updated: 18918712
	10186  -  MemoryUsage of job (MB)
	10430292  -  ResidentSetSize of job (KB)
...
006 (11744205.000.000) 01/11 16:03:34 Image size of job updated: 18918712
	10624  -  MemoryUsage of job (MB)
	10878204  -  ResidentSetSize of job (KB)
...
006 (11744205.000.000) 01/11 16:08:34 Image size of job updated: 20214016
	10624  -  MemoryUsage of job (MB)
	10878204  -  ResidentSetSize of job (KB)
...
006 (11744205.000.000) 01/11 16:13:35 Image size of job updated: 20892016
	10624  -  MemoryUsage of job (MB)
	10878204  -  ResidentSetSize of job (KB)
...
006 (11744205.000.000) 01/11 16:28:37 Image size of job updated: 21005292
	10624  -  MemoryUsage of job (MB)
	10878204  -  ResidentSetSize of job (KB)
...
006 (11744205.000.000) 01/11 16:38:38 Image size of job updated: 22081156
	10624  -  MemoryUsage of job (MB)
	10878204  -  ResidentSetSize of job (KB)
...
006 (11744205.000.000) 01/11 16:53:39 Image size of job updated: 22268692
	10624  -  MemoryUsage of job (MB)
	10878204  -  ResidentSetSize of job (KB)
...
006 (11744205.000.000) 01/11 17:03:40 Image size of job updated: 22268692
	10769  -  MemoryUsage of job (MB)
	11026656  -  ResidentSetSize of job (KB)
...
006 (11744205.000.000) 01/11 17:08:41 Image size of job updated: 22374316
	10903  -  MemoryUsage of job (MB)
	11164284  -  ResidentSetSize of job (KB)
...
006 (11744205.000.000) 01/11 17:13:41 Image size of job updated: 22374316
	11867  -  MemoryUsage of job (MB)
	12151728  -  ResidentSetSize of job (KB)
...
006 (11744205.000.000) 01/11 17:18:42 Image size of job updated: 22551920
	12645  -  MemoryUsage of job (MB)
	12948220  -  ResidentSetSize of job (KB)
...
006 (11744205.000.000) 01/11 17:23:43 Image size of job updated: 22551920
	12905  -  MemoryUsage of job (MB)
	13214448  -  ResidentSetSize of job (KB)
...
006 (11744205.000.000) 01/11 17:33:43 Image size of job updated: 22551920
	12937  -  MemoryUsage of job (MB)
	13247156  -  ResidentSetSize of job (KB)
...
006 (11744205.000.000) 01/11 17:53:45 Image size of job updated: 22757012
	12937  -  MemoryUsage of job (MB)
	13247156  -  ResidentSetSize of job (KB)
...
006 (11744205.000.000) 01/11 18:13:47 Image size of job updated: 22800776
	12937  -  MemoryUsage of job (MB)
	13247156  -  ResidentSetSize of job (KB)
...
006 (11744205.000.000) 01/11 18:38:50 Image size of job updated: 22820080
	12937  -  MemoryUsage of job (MB)
	13247156  -  ResidentSetSize of job (KB)
...
006 (11744205.000.000) 01/11 18:53:52 Image size of job updated: 22973020
	12937  -  MemoryUsage of job (MB)
	13247156  -  ResidentSetSize of job (KB)
...
006 (11744205.000.000) 01/11 21:14:06 Image size of job updated: 26026024
	12937  -  MemoryUsage of job (MB)
	13247156  -  ResidentSetSize of job (KB)
...
006 (11744205.000.000) 01/12 01:54:37 Image size of job updated: 26468900
	12937  -  MemoryUsage of job (MB)
	13247156  -  ResidentSetSize of job (KB)
...
006 (11744205.000.000) 01/12 10:00:26 Image size of job updated: 26808156
	12937  -  MemoryUsage of job (MB)
	13247156  -  ResidentSetSize of job (KB)
...
006 (11744205.000.000) 01/12 18:46:17 Image size of job updated: 26958892
	12937  -  MemoryUsage of job (MB)
	13247156  -  ResidentSetSize of job (KB)
...
006 (11744205.000.000) 01/13 10:37:52 Image size of job updated: 27072220
	12937  -  MemoryUsage of job (MB)
	13247156  -  ResidentSetSize of job (KB)
...
006 (11744205.000.000) 01/14 09:20:07 Image size of job updated: 27211944
	12937  -  MemoryUsage of job (MB)
	13247156  -  ResidentSetSize of job (KB)
...
040 (11744205.000.000) 01/14 13:33:18 Started transferring output files
...
040 (11744205.000.000) 01/14 13:33:18 Finished transferring output files
...
009 (11744205.000.000) 01/14 13:33:19 Job was aborted.
	Job removed by SYSTEM_PERIODIC_REMOVE due to wall time exceeded allowed max.
...
