000 (11744205.001.000) 01/11 12:12:13 Job submitted from host: <137.138.76.70:9618?addrs=137.138.76.70-9618+[2001-1458-d00-1c--49]-9618&alias=bigbird11.cern.ch&noUDP&sock=schedd_4500_3445>
...
040 (11744205.001.000) 01/11 14:02:42 Started transferring input files
	Transferring to host: <128.142.192.150:9618?addrs=128.142.192.150-9618+[2001-1458-301-56--100-12]-9618&alias=b7g18p6083.cern.ch&noUDP&sock=slot1_33_1213_6b0a_57506>
...
040 (11744205.001.000) 01/11 14:02:42 Finished transferring input files
...
001 (11744205.001.000) 01/11 14:02:43 Job executing on host: <128.142.192.150:9618?addrs=128.142.192.150-9618+[2001-1458-301-56--100-12]-9618&alias=b7g18p6083.cern.ch&noUDP&sock=startd_1169_6a4d>
...
006 (11744205.001.000) 01/11 14:02:52 Image size of job updated: 511652
	39  -  MemoryUsage of job (MB)
	39436  -  ResidentSetSize of job (KB)
...
006 (11744205.001.000) 01/11 14:07:53 Image size of job updated: 6008180
	781  -  MemoryUsage of job (MB)
	799516  -  ResidentSetSize of job (KB)
...
006 (11744205.001.000) 01/11 14:12:54 Image size of job updated: 7943268
	871  -  MemoryUsage of job (MB)
	891872  -  ResidentSetSize of job (KB)
...
006 (11744205.001.000) 01/11 14:17:54 Image size of job updated: 7943268
	1169  -  MemoryUsage of job (MB)
	1196264  -  ResidentSetSize of job (KB)
...
006 (11744205.001.000) 01/11 14:27:55 Image size of job updated: 8248104
	1169  -  MemoryUsage of job (MB)
	1196264  -  ResidentSetSize of job (KB)
...
006 (11744205.001.000) 01/11 14:42:56 Image size of job updated: 8399388
	1169  -  MemoryUsage of job (MB)
	1196264  -  ResidentSetSize of job (KB)
...
006 (11744205.001.000) 01/11 14:47:57 Image size of job updated: 8790848
	1380  -  MemoryUsage of job (MB)
	1412376  -  ResidentSetSize of job (KB)
...
006 (11744205.001.000) 01/11 15:02:58 Image size of job updated: 8790848
	1423  -  MemoryUsage of job (MB)
	1456600  -  ResidentSetSize of job (KB)
...
006 (11744205.001.000) 01/11 15:07:59 Image size of job updated: 8790848
	1424  -  MemoryUsage of job (MB)
	1457528  -  ResidentSetSize of job (KB)
...
006 (11744205.001.000) 01/11 15:12:59 Image size of job updated: 8790848
	1429  -  MemoryUsage of job (MB)
	1462572  -  ResidentSetSize of job (KB)
...
006 (11744205.001.000) 01/11 15:17:59 Image size of job updated: 8790848
	1498  -  MemoryUsage of job (MB)
	1533764  -  ResidentSetSize of job (KB)
...
006 (11744205.001.000) 01/11 15:23:00 Image size of job updated: 8790848
	1506  -  MemoryUsage of job (MB)
	1541396  -  ResidentSetSize of job (KB)
...
006 (11744205.001.000) 01/11 15:33:01 Image size of job updated: 8790848
	1616  -  MemoryUsage of job (MB)
	1654672  -  ResidentSetSize of job (KB)
...
006 (11744205.001.000) 01/11 15:43:03 Image size of job updated: 8790848
	1622  -  MemoryUsage of job (MB)
	1660596  -  ResidentSetSize of job (KB)
...
006 (11744205.001.000) 01/11 15:48:03 Image size of job updated: 9069856
	1622  -  MemoryUsage of job (MB)
	1660596  -  ResidentSetSize of job (KB)
...
006 (11744205.001.000) 01/11 15:53:03 Image size of job updated: 9069856
	1750  -  MemoryUsage of job (MB)
	1791716  -  ResidentSetSize of job (KB)
...
006 (11744205.001.000) 01/11 15:58:04 Image size of job updated: 10903192
	1791  -  MemoryUsage of job (MB)
	1832968  -  ResidentSetSize of job (KB)
...
006 (11744205.001.000) 01/11 16:03:04 Image size of job updated: 10903192
	1839  -  MemoryUsage of job (MB)
	1883088  -  ResidentSetSize of job (KB)
...
006 (11744205.001.000) 01/11 16:08:04 Image size of job updated: 10903192
	1897  -  MemoryUsage of job (MB)
	1942040  -  ResidentSetSize of job (KB)
...
006 (11744205.001.000) 01/11 16:13:05 Image size of job updated: 10903192
	1904  -  MemoryUsage of job (MB)
	1949556  -  ResidentSetSize of job (KB)
...
006 (11744205.001.000) 01/11 16:28:07 Image size of job updated: 10903192
	2017  -  MemoryUsage of job (MB)
	2065116  -  ResidentSetSize of job (KB)
...
006 (11744205.001.000) 01/11 16:33:08 Image size of job updated: 10903192
	2030  -  MemoryUsage of job (MB)
	2078028  -  ResidentSetSize of job (KB)
...
006 (11744205.001.000) 01/11 17:03:10 Image size of job updated: 10903192
	2235  -  MemoryUsage of job (MB)
	2287672  -  ResidentSetSize of job (KB)
...
006 (11744205.001.000) 01/11 17:23:12 Image size of job updated: 10903192
	2235  -  MemoryUsage of job (MB)
	2287784  -  ResidentSetSize of job (KB)
...
006 (11744205.001.000) 01/11 17:28:13 Image size of job updated: 10903192
	2280  -  MemoryUsage of job (MB)
	2334068  -  ResidentSetSize of job (KB)
...
006 (11744205.001.000) 01/11 17:33:13 Image size of job updated: 10903192
	2281  -  MemoryUsage of job (MB)
	2334860  -  ResidentSetSize of job (KB)
...
006 (11744205.001.000) 01/11 17:38:14 Image size of job updated: 10903192
	2293  -  MemoryUsage of job (MB)
	2347356  -  ResidentSetSize of job (KB)
...
006 (11744205.001.000) 01/11 17:43:15 Image size of job updated: 10903192
	2378  -  MemoryUsage of job (MB)
	2434520  -  ResidentSetSize of job (KB)
...
006 (11744205.001.000) 01/11 17:58:16 Image size of job updated: 10903192
	2410  -  MemoryUsage of job (MB)
	2467120  -  ResidentSetSize of job (KB)
...
006 (11744205.001.000) 01/11 18:03:16 Image size of job updated: 10953820
	2445  -  MemoryUsage of job (MB)
	2503400  -  ResidentSetSize of job (KB)
...
006 (11744205.001.000) 01/11 18:08:16 Image size of job updated: 10953820
	2535  -  MemoryUsage of job (MB)
	2595008  -  ResidentSetSize of job (KB)
...
006 (11744205.001.000) 01/11 18:18:18 Image size of job updated: 11145796
	2609  -  MemoryUsage of job (MB)
	2670908  -  ResidentSetSize of job (KB)
...
006 (11744205.001.000) 01/11 18:28:19 Image size of job updated: 11145796
	2671  -  MemoryUsage of job (MB)
	2734092  -  ResidentSetSize of job (KB)
...
006 (11744205.001.000) 01/11 18:48:22 Image size of job updated: 11145796
	2740  -  MemoryUsage of job (MB)
	2804808  -  ResidentSetSize of job (KB)
...
006 (11744205.001.000) 01/11 18:53:22 Image size of job updated: 11145796
	2754  -  MemoryUsage of job (MB)
	2819664  -  ResidentSetSize of job (KB)
...
006 (11744205.001.000) 01/11 18:58:22 Image size of job updated: 11145796
	2776  -  MemoryUsage of job (MB)
	2842572  -  ResidentSetSize of job (KB)
...
006 (11744205.001.000) 01/11 19:03:23 Image size of job updated: 11145796
	2793  -  MemoryUsage of job (MB)
	2859936  -  ResidentSetSize of job (KB)
...
006 (11744205.001.000) 01/11 19:08:24 Image size of job updated: 11672016
	2793  -  MemoryUsage of job (MB)
	2859936  -  ResidentSetSize of job (KB)
...
006 (11744205.001.000) 01/11 19:13:24 Image size of job updated: 11672016
	2830  -  MemoryUsage of job (MB)
	2897904  -  ResidentSetSize of job (KB)
...
006 (11744205.001.000) 01/11 19:18:25 Image size of job updated: 11672016
	2831  -  MemoryUsage of job (MB)
	2898492  -  ResidentSetSize of job (KB)
...
006 (11744205.001.000) 01/11 19:23:26 Image size of job updated: 11672016
	2842  -  MemoryUsage of job (MB)
	2910016  -  ResidentSetSize of job (KB)
...
006 (11744205.001.000) 01/11 19:43:28 Image size of job updated: 12016036
	2842  -  MemoryUsage of job (MB)
	2910016  -  ResidentSetSize of job (KB)
...
006 (11744205.001.000) 01/11 21:03:36 Image size of job updated: 13633116
	2842  -  MemoryUsage of job (MB)
	2910016  -  ResidentSetSize of job (KB)
...
006 (11744205.001.000) 01/11 22:53:50 Image size of job updated: 13633116
	2890  -  MemoryUsage of job (MB)
	2958924  -  ResidentSetSize of job (KB)
...
006 (11744205.001.000) 01/11 22:58:50 Image size of job updated: 14143888
	2909  -  MemoryUsage of job (MB)
	2978656  -  ResidentSetSize of job (KB)
...
006 (11744205.001.000) 01/11 23:03:51 Image size of job updated: 14143888
	2918  -  MemoryUsage of job (MB)
	2987232  -  ResidentSetSize of job (KB)
...
006 (11744205.001.000) 01/11 23:08:51 Image size of job updated: 14143888
	2925  -  MemoryUsage of job (MB)
	2994964  -  ResidentSetSize of job (KB)
...
006 (11744205.001.000) 01/11 23:13:51 Image size of job updated: 16518408
	2925  -  MemoryUsage of job (MB)
	2994964  -  ResidentSetSize of job (KB)
...
006 (11744205.001.000) 01/11 23:28:52 Image size of job updated: 16518408
	3063  -  MemoryUsage of job (MB)
	3136480  -  ResidentSetSize of job (KB)
...
006 (11744205.001.000) 01/11 23:33:53 Image size of job updated: 16518408
	3184  -  MemoryUsage of job (MB)
	3260356  -  ResidentSetSize of job (KB)
...
006 (11744205.001.000) 01/11 23:38:53 Image size of job updated: 16518408
	3362  -  MemoryUsage of job (MB)
	3442640  -  ResidentSetSize of job (KB)
...
006 (11744205.001.000) 01/11 23:43:53 Image size of job updated: 16518408
	3480  -  MemoryUsage of job (MB)
	3562580  -  ResidentSetSize of job (KB)
...
006 (11744205.001.000) 01/11 23:48:54 Image size of job updated: 16518408
	3591  -  MemoryUsage of job (MB)
	3676668  -  ResidentSetSize of job (KB)
...
006 (11744205.001.000) 01/11 23:53:54 Image size of job updated: 16518408
	3653  -  MemoryUsage of job (MB)
	3740412  -  ResidentSetSize of job (KB)
...
006 (11744205.001.000) 01/11 23:58:54 Image size of job updated: 16518408
	3685  -  MemoryUsage of job (MB)
	3772516  -  ResidentSetSize of job (KB)
...
006 (11744205.001.000) 01/12 00:03:55 Image size of job updated: 16518408
	4063  -  MemoryUsage of job (MB)
	4160228  -  ResidentSetSize of job (KB)
...
006 (11744205.001.000) 01/12 00:08:55 Image size of job updated: 16518408
	4162  -  MemoryUsage of job (MB)
	4261008  -  ResidentSetSize of job (KB)
...
006 (11744205.001.000) 01/12 00:13:55 Image size of job updated: 16518408
	4177  -  MemoryUsage of job (MB)
	4276920  -  ResidentSetSize of job (KB)
...
006 (11744205.001.000) 01/12 00:18:56 Image size of job updated: 16518408
	4226  -  MemoryUsage of job (MB)
	4326764  -  ResidentSetSize of job (KB)
...
006 (11744205.001.000) 01/12 00:23:57 Image size of job updated: 16518408
	4480  -  MemoryUsage of job (MB)
	4587332  -  ResidentSetSize of job (KB)
...
006 (11744205.001.000) 01/12 00:28:57 Image size of job updated: 16518408
	4633  -  MemoryUsage of job (MB)
	4743456  -  ResidentSetSize of job (KB)
...
006 (11744205.001.000) 01/12 00:33:58 Image size of job updated: 16518408
	4790  -  MemoryUsage of job (MB)
	4904672  -  ResidentSetSize of job (KB)
...
006 (11744205.001.000) 01/12 00:38:59 Image size of job updated: 16518408
	4822  -  MemoryUsage of job (MB)
	4936948  -  ResidentSetSize of job (KB)
...
006 (11744205.001.000) 01/12 00:43:59 Image size of job updated: 16518408
	4870  -  MemoryUsage of job (MB)
	4986188  -  ResidentSetSize of job (KB)
...
006 (11744205.001.000) 01/12 00:49:00 Image size of job updated: 16518408
	4929  -  MemoryUsage of job (MB)
	5046468  -  ResidentSetSize of job (KB)
...
006 (11744205.001.000) 01/12 00:54:01 Image size of job updated: 16518408
	5015  -  MemoryUsage of job (MB)
	5134800  -  ResidentSetSize of job (KB)
...
006 (11744205.001.000) 01/12 00:59:01 Image size of job updated: 16518408
	5071  -  MemoryUsage of job (MB)
	5192144  -  ResidentSetSize of job (KB)
...
006 (11744205.001.000) 01/12 01:04:02 Image size of job updated: 16518408
	5120  -  MemoryUsage of job (MB)
	5241916  -  ResidentSetSize of job (KB)
...
006 (11744205.001.000) 01/12 01:59:07 Image size of job updated: 17213232
	5120  -  MemoryUsage of job (MB)
	5241916  -  ResidentSetSize of job (KB)
...
006 (11744205.001.000) 01/12 02:09:08 Image size of job updated: 17559640
	5120  -  MemoryUsage of job (MB)
	5241916  -  ResidentSetSize of job (KB)
...
006 (11744205.001.000) 01/12 02:39:11 Image size of job updated: 17664076
	5120  -  MemoryUsage of job (MB)
	5241916  -  ResidentSetSize of job (KB)
...
006 (11744205.001.000) 01/12 03:24:16 Image size of job updated: 18543508
	5120  -  MemoryUsage of job (MB)
	5241916  -  ResidentSetSize of job (KB)
...
006 (11744205.001.000) 01/12 03:29:16 Image size of job updated: 18689316
	5120  -  MemoryUsage of job (MB)
	5241916  -  ResidentSetSize of job (KB)
...
006 (11744205.001.000) 01/12 03:44:18 Image size of job updated: 18852920
	5120  -  MemoryUsage of job (MB)
	5241916  -  ResidentSetSize of job (KB)
...
006 (11744205.001.000) 01/12 07:24:43 Image size of job updated: 18998408
	5120  -  MemoryUsage of job (MB)
	5241916  -  ResidentSetSize of job (KB)
...
006 (11744205.001.000) 01/12 10:40:04 Image size of job updated: 19231408
	5120  -  MemoryUsage of job (MB)
	5241916  -  ResidentSetSize of job (KB)
...
006 (11744205.001.000) 01/12 20:21:06 Image size of job updated: 19231408
	5133  -  MemoryUsage of job (MB)
	5255188  -  ResidentSetSize of job (KB)
...
006 (11744205.001.000) 01/12 20:26:07 Image size of job updated: 19231408
	5166  -  MemoryUsage of job (MB)
	5289944  -  ResidentSetSize of job (KB)
...
006 (11744205.001.000) 01/12 20:31:07 Image size of job updated: 19231408
	5189  -  MemoryUsage of job (MB)
	5313052  -  ResidentSetSize of job (KB)
...
006 (11744205.001.000) 01/12 20:46:09 Image size of job updated: 19231408
	6354  -  MemoryUsage of job (MB)
	6505548  -  ResidentSetSize of job (KB)
...
006 (11744205.001.000) 01/12 20:51:09 Image size of job updated: 19231408
	6928  -  MemoryUsage of job (MB)
	7093804  -  ResidentSetSize of job (KB)
...
006 (11744205.001.000) 01/12 20:56:11 Image size of job updated: 19231408
	7217  -  MemoryUsage of job (MB)
	7389616  -  ResidentSetSize of job (KB)
...
006 (11744205.001.000) 01/12 21:01:11 Image size of job updated: 19231408
	8494  -  MemoryUsage of job (MB)
	8697048  -  ResidentSetSize of job (KB)
...
006 (11744205.001.000) 01/12 21:06:11 Image size of job updated: 19231408
	8979  -  MemoryUsage of job (MB)
	9193904  -  ResidentSetSize of job (KB)
...
006 (11744205.001.000) 01/12 21:11:12 Image size of job updated: 19231408
	8999  -  MemoryUsage of job (MB)
	9214368  -  ResidentSetSize of job (KB)
...
006 (11744205.001.000) 01/12 21:16:13 Image size of job updated: 19231408
	9167  -  MemoryUsage of job (MB)
	9386588  -  ResidentSetSize of job (KB)
...
006 (11744205.001.000) 01/12 21:21:13 Image size of job updated: 19231408
	9195  -  MemoryUsage of job (MB)
	9414912  -  ResidentSetSize of job (KB)
...
006 (11744205.001.000) 01/12 21:26:13 Image size of job updated: 21188000
	9195  -  MemoryUsage of job (MB)
	9414912  -  ResidentSetSize of job (KB)
...
006 (11744205.001.000) 01/12 21:51:16 Image size of job updated: 21188000
	9217  -  MemoryUsage of job (MB)
	9438184  -  ResidentSetSize of job (KB)
...
006 (11744205.001.000) 01/12 23:06:23 Image size of job updated: 21188000
	9361  -  MemoryUsage of job (MB)
	9584708  -  ResidentSetSize of job (KB)
...
006 (11744205.001.000) 01/12 23:11:24 Image size of job updated: 21188000
	9366  -  MemoryUsage of job (MB)
	9590356  -  ResidentSetSize of job (KB)
...
006 (11744205.001.000) 01/13 07:47:18 Image size of job updated: 22208572
	9366  -  MemoryUsage of job (MB)
	9590356  -  ResidentSetSize of job (KB)
...
006 (11744205.001.000) 01/14 01:39:04 Image size of job updated: 22305160
	9366  -  MemoryUsage of job (MB)
	9590356  -  ResidentSetSize of job (KB)
...
006 (11744205.001.000) 01/14 02:49:13 Image size of job updated: 22305160
	9403  -  MemoryUsage of job (MB)
	9628232  -  ResidentSetSize of job (KB)
...
006 (11744205.001.000) 01/14 02:54:14 Image size of job updated: 22305160
	9406  -  MemoryUsage of job (MB)
	9630836  -  ResidentSetSize of job (KB)
...
040 (11744205.001.000) 01/14 14:03:18 Started transferring output files
...
040 (11744205.001.000) 01/14 14:03:18 Finished transferring output files
...
009 (11744205.001.000) 01/14 14:03:18 Job was aborted.
	Job removed by SYSTEM_PERIODIC_REMOVE due to wall time exceeded allowed max.
...
